<?xml version="1.0" encoding="utf-8"?>
<!-- Generator: Adobe Illustrator 16.0.0, SVG Export Plug-In . SVG Version: 6.00 Build 0)  -->
<!DOCTYPE svg PUBLIC "-//W3C//DTD SVG 1.1//EN" "http://www.w3.org/Graphics/SVG/1.1/DTD/svg11.dtd">
<svg version="1.1" id="Layer_1" xmlns="http://www.w3.org/2000/svg" xmlns:xlink="http://www.w3.org/1999/xlink" x="0px" y="0px"
	 width="116.5px" height="17px" viewBox="0 0 116.5 17" enable-background="new 0 0 116.5 17" xml:space="preserve">
<g>
	<circle fill="none" stroke="#B7B9BA" stroke-miterlimit="10" cx="108" cy="8.5" r="8"/>
	<line fill="none" stroke="#B7B9BA" stroke-miterlimit="10" x1="0" y1="8.5" x2="100" y2="8.5"/>
</g>
</svg>
