<?xml version="1.0" encoding="utf-8"?>
<!-- Generator: Adobe Illustrator 16.0.0, SVG Export Plug-In . SVG Version: 6.00 Build 0)  -->
<!DOCTYPE svg PUBLIC "-//W3C//DTD SVG 1.1//EN" "http://www.w3.org/Graphics/SVG/1.1/DTD/svg11.dtd">
<svg version="1.1" id="Layer_1" xmlns="http://www.w3.org/2000/svg" xmlns:xlink="http://www.w3.org/1999/xlink" x="0px" y="0px"
	 width="120.2px" height="120.2px" viewBox="0 0 120.2 120.2" enable-background="new 0 0 120.2 120.2" xml:space="preserve">
<g>
	<g>
		<g>
			<path fill="none" d="M60.1,0.1L60.1,0.1c-33.131,0-60,26.861-60,59.996c0,33.136,26.869,60.004,60,60.004
				c33.135,0,60-26.868,60-60.004C120.1,26.961,93.235,0.1,60.1,0.1"/>
			<g>
				<path fill="#FFFFFF" d="M-0.229,50.445c0,0-0.079,0.391-0.125,0.787c-0.053,0.395-0.107,0.789-0.107,0.789
					c0.629-5.12,2.108-10.387,4.177-15.304c-1.208,2.643-2.231,5.514-3.069,8.469c-0.827,2.961-1.358,6.025-1.687,9.025
					c-0.298,3.005-0.316,5.949-0.135,8.686c0.219,2.734,0.618,5.261,1.206,7.434c-0.057,0.255-0.008,1.147,0.152,2.341
					c0.206,1.182,0.44,2.684,0.837,4.124c0.697,2.907,1.755,5.614,1.851,5.697l0.708,1.624l0.78,1.603
					c0.496,1.083,1.106,2.115,1.667,3.178l-1.172-2.182c-0.356-0.741-0.712-1.481-1.067-2.219c0.354,0.737,0.71,1.478,1.067,2.219
					l1.172,2.182c3.721,6.623,8.743,12.88,14.982,18.108c6.219,5.24,13.69,9.393,21.868,11.864c2.255,0.723,5.563,1.499,9.426,2.026
					c3.864,0.521,8.293,0.698,12.705,0.369c4.413-0.316,8.792-1.147,12.574-2.249c3.789-1.088,6.967-2.436,9.188-3.439
					c1.26-0.642,2.544-1.225,3.774-1.953c-1.03,0.585-1.564,0.84-2.097,1.099c-0.535,0.252-1.051,0.544-2.133,1.022
					c5.314-2.668,9.768-5.759,13.642-9.21c-0.728,0.555-0.878,0.626-2.638,1.887c0,0,0.525-0.399,1.05-0.799
					c0.533-0.391,1.032-0.823,1.032-0.823c0.426-0.428,1.008-0.975,1.669-1.581c0.641-0.636,1.348-1.337,2.061-2.043
					c0.684-0.736,1.372-1.477,2-2.151c0.589-0.706,1.122-1.345,1.541-1.847c-0.151,0.238,0.125-0.016,0.561-0.523
					c0.423-0.524,1.027-1.272,1.594-1.976l-0.491,0.526c2.11-2.706,4.12-5.838,5.775-9.053c1.653-3.215,2.997-6.486,3.912-9.412
					c0.288-0.806,0.457-1.424,0.605-1.784c0,0,0.096-0.355,0.241-0.888c0.157-0.529,0.317-1.247,0.469-1.967
					c0.151-0.72,0.325-1.435,0.419-1.978c0.09-0.544,0.15-0.906,0.15-0.906c0.021,0.233,0.264-0.962,0.445-1.871
					c0.138-0.916,0.233-1.542,0.094-0.141c0.506-4.38,0.754-8.865,0.332-13.046c-0.458-7.476-2.406-15.108-5.812-22.111
					c-3.385-7.012-8.203-13.377-13.954-18.506l0.242,0.293c-2.01-1.795-4.012-3.357-6.235-4.842
					c-2.203-1.515-4.618-2.967-7.502-4.49c-2.094-1.024-4.724-2.051-7.056-2.839c-2.345-0.761-4.407-1.222-5.323-1.348
					c-1.3-0.293-2.403-0.555-3.418-0.731c-1.019-0.156-1.933-0.32-2.851-0.43c-0.919-0.092-1.836-0.184-2.846-0.285
					c-1.015-0.042-2.121-0.147-3.423-0.172c1.341,0.145-5.065,0.055-2.496,0.19c3.434,0.252,3.629,0.126,6.519,0.537l-0.081-0.053
					c6.751,0.822,13.333,2.829,19.42,5.854c6.088,3.032,11.635,7.16,16.377,12.099c6.471,6.471,11.624,15.299,14.224,24.448
					c0.756,2.446,1.268,5.015,1.708,7.594c0.365,2.591,0.649,5.204,0.679,7.784c0.162,5.16-0.459,10.14-1.405,14.441
					c-0.201,1.034-0.466,1.901-0.737,2.726c-0.255,0.828-0.532,1.608-0.861,2.441c-1.253,3.845-3.124,8.081-5.6,12.114
					c-2.486,4.024-5.514,7.865-8.743,11.103c0.126-0.117,0.247-0.232,0.321-0.313c-3.443,3.432-6.395,5.607-10.354,8.191
					c0.04,0.018-0.578,0.416-0.868,0.625c-0.098,0.037-0.55,0.281-1.263,0.689c-0.356,0.206-0.779,0.45-1.258,0.728
					c-0.49,0.255-1.038,0.541-1.632,0.851c-2.38,1.229-5.599,2.67-8.978,3.762c-3.373,1.108-6.89,1.84-9.659,2.232
					c-0.693,0.093-1.337,0.194-1.923,0.257c-0.587,0.05-1.113,0.093-1.564,0.131c-0.903,0.078-1.511,0.116-1.722,0.099
					c-0.495,0.019-1.007,0.038-1.53,0.059c-5.032,0.086-10.135-0.618-14.892-1.847c-4.771-1.202-9.161-3.032-12.979-4.969
					c-0.424-0.196-0.86-0.398-1.298-0.602c-0.428-0.224-0.859-0.449-1.282-0.671c-0.423-0.221-0.839-0.437-1.237-0.645
					c-0.387-0.221-0.757-0.433-1.101-0.63c-1.248-0.871-1.561-0.929-3.045-2.015c-1.781-1.512-3.158-2.731-3.88-3.366
					c-0.732-0.623-0.838-0.628,0.031,0.204c-2.933-2.47-5.555-5.309-7.675-7.97c-1.018-1.209-1.936-2.483-2.872-3.776
					c-0.752-1.126-1.127-1.785-1.414-2.406c-1.764-2.978-1.214-2.121-2.797-5.379c-0.131-0.423-1.128-2.461-1.984-4.59
					c-0.416-1.067-0.803-2.153-1.12-3.027c-0.274-0.888-0.48-1.564-0.542-1.814l0.179,0.566C2.169,72.294,1.888,69.5,1.495,65.439
					c-0.26-2.828-0.245-5.739-0.117-8.657c0.17-2.919,0.572-5.838,1.133-8.698c0.601-2.854,1.413-5.632,2.358-8.286
					c0.996-2.637,2.124-5.145,3.371-7.459c-0.063-0.15-1.033,2.076-1.236,2.112c2.765-5.566,6.46-10.711,10.847-15.163
					c0.782-0.813,1.856-1.686,2.245-2.02c1.485-1.328,0.835-0.83,1.938-1.787l0.221-0.043c0.763-0.749,1.426-1.17,2.039-1.622
					c0.614-0.454,1.245-0.854,2.051-1.449c0.063-0.094,0.647-0.537,1.242-0.927c0.096,0.08,1.841-1.19,1.812-1.043l0.013-0.019
					c0.358-0.236,0.621-0.391,1.086-0.633c0.173-0.11,0.704-0.449,1.416-0.902c0.716-0.448,1.648-0.948,2.567-1.48
					c0.936-0.499,1.891-0.964,2.647-1.354c0.772-0.351,1.35-0.614,1.542-0.701l0.367-0.124c1.063-0.438,1.511-0.646,0.864-0.459
					l1.347-0.448l-0.153,0.06l1.338-0.446c0.249-0.077,0.551-0.093,0.181,0.063C43.37,3.697,44.228,3.43,45,3.232
					c-2.159,0.515-4.834,1.237-7.031,2.036c0.438-0.195,1.067-0.437,1.706-0.679c0.649-0.215,1.305-0.434,1.799-0.598
					c0.304-0.086,0.68-0.192,1.104-0.312c0.434-0.107,0.917-0.225,1.42-0.349c1.004-0.272,2.112-0.504,3.084-0.69
					c0.424-0.092,0.681-0.329,1.667-0.44c0.492,0.005,1.098-0.199,1.917-0.279c-0.918,0.222-1.834,0.338-2.769,0.534
					C48.076,2.5,50.198,2.111,50.944,2c0.343-0.095,2.175-0.29,3.32-0.452c-0.493,0.142,0.937-0.004,1.625,0
					c0.777-0.047,1.272-0.126,0.954-0.139c0.246-0.132-3.102,0.168-2.027-0.033c0.292,0.042,1.815-0.122,2.638-0.15
					c0.008-0.062-0.565-0.033-0.034-0.105c0.918-0.009,1.891-0.108,2.419-0.058c-0.172,0.021-0.551,0.021-0.819,0.025
					c0.598,0.003-1.023,0.098-2.584,0.297c-1.562,0.205-3.065,0.436-2.303,0.343c-0.202-0.008,1.476-0.24,3.117-0.433
					c1.644-0.126,3.248-0.246,2.85-0.238c-0.729-0.013,0.523-0.124-0.233-0.127l-0.838,0.096c-1.032,0.003-1.46-0.094-1.098-0.146
					c0.868,0-0.364,0.082-1.611,0.285c-1.249,0.192-2.521,0.375-1.79,0.289l-0.6,0.023c0.617-0.102,2.284-0.252,2.929-0.24
					c0.001-0.075,0.843-0.113,1.542-0.154l0.248,0.004c0.722-0.049,1.733-0.061,1.263-0.129c-4.259,0.118,2.805-0.691-1.336-0.622
					c1.746,0.11-0.585,0.109-2.403,0.258c-0.179-0.03-0.995-0.044-2.31,0.033c-1.129,0.154-0.66,0.134-0.871,0.195
					c-0.629,0.049-1.831,0.177-1.684,0.086c-0.866,0.208-1.408,0.188-2.455,0.396c-0.917,0.204,0.069,0.025-0.579,0.182
					c-1.376,0.292-3.309,0.706-4.383,1.029c-0.434,0.054-1.744,0.304-0.845-0.059c2.068-0.572-0.739,0.385,1.4-0.246
					c-0.482,0.058-0.01-0.087,0.628-0.274c0.646-0.157,1.459-0.345,1.645-0.447c-0.354,0.046-0.884,0.151-1.471,0.28
					c-0.584,0.139-1.218,0.338-1.797,0.508l0.238-0.047c-1.029,0.275-3.03,0.996-4.147,1.292c0.239-0.137-0.251-0.014,0.486-0.277
					c0,0-0.349,0.116-0.697,0.232c-0.342,0.132-0.685,0.265-0.685,0.265c-0.167,0.084-0.34,0.17,0.059,0.027
					c-0.629,0.292-1.281,0.524-1.789,0.691c-0.088-0.006-1.859,0.828-3.534,1.722c-1.679,0.892-3.241,1.879-3.145,1.81
					c-0.91,0.531-1.188,0.565-2.017,1.178c-0.01,0.035,0.483-0.338,1.279-0.795c0.793-0.461,1.818-1.13,2.87-1.667
					c2.057-1.167,4.09-2.032,3.443-1.763c-0.209,0.083-0.999,0.432-2.05,0.958c-1.033,0.563-2.362,1.236-3.613,2.03
					c-1.283,0.739-2.482,1.596-3.44,2.218c-0.934,0.656-1.586,1.142-1.739,1.211c-0.643,0.444-1.377,1.035-1.195,0.972
					c-1.054,0.793,0.245-0.331-0.527,0.207c-0.011,0.021,0.078-0.025-0.16,0.159l-0.756,0.502c-0.79,0.656-1.721,1.517-2.699,2.34
					c-0.916,0.891-1.887,1.745-2.571,2.578c0.375-0.504,0.817-1.065,1.784-2.063l0.196-0.146c0.121-0.159,0.958-0.936,0.903-0.95
					c-1.016,0.843-1.814,1.648-2.767,2.656c-0.188,0.175-0.404,0.375-0.555,0.515c0.009,0.001,0.028-0.01,0.031,0
					c-0.339,0.304-0.31,0.266-0.212,0.13c0.015-0.02,0.031-0.043,0.057-0.078c-0.742,0.446-3.415,3.905-4.907,5.792
					c-0.393,0.594-0.016,0.072-0.502,0.812c-0.75,0.977-1.368,1.815-1.944,2.7c-0.607,0.865-1.171,1.774-1.822,2.89
					c-0.348,0.75-0.354,0.818,0.207-0.006c0,0-0.248,0.418-0.495,0.837c-0.229,0.429-0.458,0.856-0.458,0.856
					c0.639-1.668-1.823,3.157-1.104,1.332C5.168,33.884,4.7,34.961,4.27,35.969c0.002,0.121-0.019,0.3-0.516,1.583
					c-0.76,1.76-0.593,1.336-1.156,2.82c-0.18,0.336-0.017-0.225-0.086-0.178c-0.722,2.348-0.796,1.996-1.428,4.23
					c-0.358,1.41-0.959,4.219-0.83,4.313C-0.095,50.662-0.175,50.65-0.229,50.445z"/>
			</g>
		</g>
	</g>
	<g>
		<g>
			<g>
				<g>
					<path fill="#FFFFFF" d="M53.521,51.513l-0.714-0.012c2.311-0.009,4.739,0.03,7.133,0.075
						c-5.208-0.376-11.358-0.707-15.384,0.091c-0.437-0.424-5.491-0.621-5.594-0.518c-1.049,0.078-2.112,0.142-3.187,0.194
						l2.205-0.104l-2.205,0.104c-1.257,0.061-2.533,0.105-3.828,0.137c-0.947,0.019-1.9,0.038-2.866,0.058
						c0-0.778,0.001-1.563,0.001-2.355c0.012-1.151,0.024-2.314,0.037-3.487c0.044-2.339,0.089-4.72,0.135-7.128
						c0.013-0.855,0.031-2.006,0.051-3.343c0.017-1.185,0.036-3.467,0.054-3.115c4.041,0.07,8.602,0.15,10.92,0.191
						c0.63,0.014,1.256,0.027,1.891,0.042c-1.053-0.038-1.053-0.038-2.106-0.076c2.654-0.106,5.063-0.204,7.368-0.297
						c-0.409-0.061-0.48-0.119-1.451-0.203l1.185,0.04c1.08-0.176,3.569-0.168,4.739-0.243c-0.251,0.093,0.67,0.111,1.484,0.125
						l-0.322-0.061c3.087,0.038,6.67-0.037,9.43-0.025c0.385-0.001,0.673,0.034,0.847,0.065l2.646-0.071
						c-0.203,0.124,2.194,0.109,0.932,0.187c1.98-0.146,3.989-0.057,5.876-0.208c3.129-0.025,6.351-0.052,9.608-0.078
						c1.625-0.027,3.258-0.055,4.893-0.083c1.568-0.032,3.512-0.071,4.349-0.115c0.014,0.334,0.028,0.664,0.043,0.993l0.046-0.124
						c0.061,1.176,0.121,2.326,0.183,3.515c0.061,1.215,0.102,2.494,0.062,3.979c0.165,2.119,0.252,5.134,0.509,5.978
						c0.036,2.446,0.165,3.421,0.232,5.82c0.127-0.618,0.154,2.329,0.253,1.149c0.178-1.592,0.027-1.679,0.17-3.029l-0.042,0.04
						c0.076-3.141,0.152-6.267,0.229-9.397c0.025-1.572,0.051-3.145,0.076-4.72c0.018-2.003,0.037-4.008,0.055-6.018l-0.251-0.002
						c-1.454,0.017-2.927,0.033-4.42,0.05c-1.103,0.001-2.218,0.003-3.339,0.005c-2.243-0.001-4.505-0.001-6.722-0.002
						c-4.771,0.046-9.932,0.129-14.025,0.235c-0.977,0.036-1.681-0.07-2.513-0.13c-3.772,0.024-8.542,0.056-12.799,0.084
						c0.079,0.001,0.157,0.003,0.208,0.004c-2.256,0.021-3.945-0.109-6.148-0.088c0.011,0.036-0.33,0.039-0.496,0.058
						c-0.191-0.085-3.433,0.004-6.724,0.101c-1.646,0.047-3.307,0.095-4.599,0.132c-1.313,0.033-2.148,0.047-2.616,0.022
						c-0.343,0.007-0.696,0.014-1.055,0.02l-0.749-0.009c-0.014,0.824-0.029,1.653-0.043,2.484l-0.057,1.69
						c-0.043,1.122-0.086,2.242-0.128,3.34c-0.084,2.195-0.154,4.311-0.139,6.234c0.08,0.867,0.149,1.843,0.24,2.572
						c-0.073,0.705,0.068,0.841,0.048,1.691c-0.34,2.159-0.198,3.424-0.078,2.31c0.007,0.477,0.014,0.949,0.021,1.42
						c0.002,0.615,0.004,1.225,0.006,1.828c1.302-0.001,2.563-0.001,3.74-0.001c0.73-0.027,1.458-0.054,2.198-0.081
						c0.627-0.027,0.977,0.022,1.292,0.104c1.605-0.049,1.131,0.035,2.814,0.069c0.406,0.119,4.219-0.188,4.694-0.152l-0.275,0.018
						c1.945,0.021,3.237,0.25,5.139,0.261c5.283,0.087,11.053-0.001,15.947,0.039c0.049-0.124-1.079,0.028-1.136-0.137
						c2.886,0.021,5.797,0.176,8.71,0.197c0.525,0.033,1.168,0.096,1.408,0.135c0.931,0.047,0.549-0.059,1.23-0.043l0.092,0.112
						c0.996-0.092,1.456,0.124,2.394,0.078c0.05-0.046,0.392-0.052,0.725-0.048c0.017,0.119,1.026-0.008,0.978,0.101l0.01-0.009
						c0.201,0.002,0.344-0.006,0.589,0.015c0.392-0.038,3.928-0.379,4.345-0.419l0.18,0.02c0.535-0.004,0.764-0.092,0.452-0.113
						l0.66,0.007l-0.076,0.008l0.656,0.007c0.121,0.011,0.258,0.066,0.071,0.118c0.372-0.041,0.789-0.063,1.161-0.043
						c-1.034-0.073-2.317-0.177-3.398-0.298c0.444-0.041,1.247,0.023,1.729,0.01c0.575,0.079,1.757,0.146,2.677,0.2
						c0.202-0.007,0.341-0.14,0.8-0.081c0.224,0.092,0.518-0.004,0.899,0.063c-0.438,0.049-0.866,0.027-1.311,0.022
						c0.076,0.108,1.081,0.073,1.432,0.104c0.165-0.034,1.021,0.002,1.56-0.028c-0.235,0.104,0.435,0.066,0.754,0.122
						c0.363,0.013,0.595-0.029,0.448-0.065c0.117-0.113-1.445-0.068-0.939-0.187c0.133,0.055,0.845,0.035,1.227,0.03
						c0.005-0.062-0.262-0.047-0.013-0.105c0.426,0.014,0.877-0.061,1.122,0.003c-0.08,0.017-0.255,0.007-0.38,0.005
						c0.554,0.006-3.005,0.402-2.287,0.367c-0.187-0.055,3.157-0.366,2.788-0.37c-0.338-0.03,0.242-0.111-0.108-0.133l-0.388,0.074
						c-0.478-0.022-0.674-0.131-0.506-0.173c0.801,0.01-2.275,0.421-1.59,0.358l-0.278-0.029c0.291-0.04,1.066-0.075,1.365-0.01
						c0.002-0.062,0.393-0.083,0.717-0.104l0.115,0.01c0.335-0.03,0.804-0.016,0.586-0.097c-1.966,0.01,1.292-0.62-0.611-0.655
						c0.799,0.135-0.269,0.138-1.106,0.154c-0.081-0.047-0.454-0.113-1.056-0.148c-0.521,0.011-0.308,0.049-0.407,0.083
						c-0.289-0.03-0.842-0.056-0.77-0.126c-0.407,0.084-0.65-0.055-1.138-0.025c-0.43,0.039,0.029,0.037-0.276,0.078
						c-0.644-0.012-1.545-0.028-2.063-0.038c-0.198-0.066-0.803-0.184-0.363-0.287c0.978,0.015-0.373,0.168,0.645,0.146
						c-0.438-0.151,0.9-0.041,1.085-0.156c-0.324-0.068-0.981-0.069-1.531-0.051l0.11,0.021c-0.484,0.021-1.453,0.052-1.978-0.029
						c0.124-0.054-0.105-0.094,0.25-0.106l-0.667-0.01c-0.085,0.017-0.172,0.033,0.021,0.046c-0.314,0.041-0.629,0.019-0.872-0.014
						c-0.072-0.056-3.547,0.237-3.439,0.202c-0.48,0.002-0.596-0.083-1.065-0.025c-0.012,0.012,0.269,0.005,0.687-0.011
						c0.416-0.019,0.972-0.043,1.512-0.066c1.075-0.052,2.077-0.107,1.759-0.098c-0.41-0.063-5.445,0.282-5.744,0.175
						c-0.356,0.004-0.786,0.016-0.702,0.073c-0.601-0.027,0.181-0.109-0.248-0.163c-0.009,0.01,0.035,0.029-0.102,0.027
						l-0.411-0.072c-0.935,0.088-2.305-0.027-3.282,0.09c0.283-0.062,0.606-0.17,1.235-0.227l0.11,0.03
						c0.089-0.018,0.607-0.037,0.593-0.095c-0.598-0.038-1.109-0.027-1.739,0.029c-0.115-0.017-0.243-0.033-0.343-0.047
						c0.002,0.007,0.012,0.014,0.01,0.021c-0.206-0.035-0.184-0.041-0.109-0.063c0.01-0.004,0.022-0.009,0.043-0.013
						c-0.375-0.168-2.348,0.106-3.439,0.02c-0.322,0.023-0.03,0.028-0.431,0.061c-1.116-0.066-1.886-0.117-3.052-0.156
						c-0.373,0.072-0.402,0.101,0.048,0.176l-0.881-0.023c0.801-0.192-1.646-0.184-0.763-0.375
						c-0.257-0.044-0.785-0.053-1.279-0.021c-0.05,0.048-0.127,0.125-0.748,0.125c-0.863-0.064-0.644-0.048-1.374-0.103
						c-0.169-0.063,0.093-0.087,0.063-0.138c-1.104,0.08-0.963-0.137-2.004-0.125c-0.652,0.019-1.94,0.026-1.971,0.137
						C53.433,51.684,53.433,51.603,53.521,51.513z"/>
				</g>
			</g>
		</g>
		<g>
			<g>
				<g>
					<path fill="#FFFFFF" d="M35.055,62.226l0.012-0.049c0.008,0.156-0.031,0.32-0.076,0.482c0.375-0.352,0.707-0.768-0.091-1.04
						c0.424-0.03,0.622-0.372,0.517-0.379c-0.078-0.07-0.141-0.143-0.194-0.215c0.031,0.05,0.065,0.1,0.105,0.148
						c-0.04-0.049-0.074-0.099-0.105-0.148c-0.329-0.46-0.185-0.959-0.021-1.476c0.082-0.286,0.174-1.064,0.297-1.357
						c0.015-0.047,0.029-0.09,0.042-0.128c-0.039,0.071-0.039,0.071-0.076,0.143c-0.113-0.18-0.224-0.342-0.296-0.499
						c-0.061,0.028-0.12,0.033-0.204,0.099l0.041-0.08c-0.176-0.073-0.168-0.241-0.243-0.321c0.092,0.018,0.111-0.045,0.125-0.1
						l-0.061,0.021c0.039-0.209-0.037-0.451-0.025-0.638c0-0.026,0.035-0.046,0.066-0.058l-0.071-0.179
						c0.124,0.014,0.109-0.148,0.186-0.063c-0.146-0.134-0.057-0.27-0.208-0.397c-0.019-0.456-0.112-0.941-0.319-1.413l-0.046,0.012
						c-0.082-0.166-0.326-0.312-0.245-0.512c-0.165-0.144-0.252-0.348-0.509-0.404c-0.036-0.166-0.165-0.231-0.232-0.394
						c-0.127,0.042-0.154-0.158-0.253-0.078c-0.178,0.107-0.027,0.113-0.17,0.205l0.042-0.003c-0.192,0.426-0.301,0.854-0.361,1.285
						c0.108,0.288,0.02,0.601,0.053,0.9c0.046,0.323,0.129,0.672,0.235,0.949c0.036,0.066-0.07,0.113-0.13,0.17
						c0.057,0.255,0.014,0.578,0.083,0.865l0.004-0.014c0.021,0.152-0.11,0.267-0.088,0.416c0.036-0.001,0.039,0.022,0.058,0.033
						c-0.169,0.026,0.353,0.877,0.255,0.93c0.008,0.016,0.015,0.031,0.02,0.048c-0.076,0.314-0.406,0.64-0.376,0.91
						c0.08,0.059,0.149,0.124,0.24,0.174c-0.073,0.048,0.068,0.057,0.048,0.114c-0.34,0.146-0.198,0.231-0.078,0.156
						c0.046,0.12,0.016,0.24,0.028,0.348c0.025,0.046,0.051,0.095,0.08,0.148c0.028,0.042-0.022,0.066-0.103,0.088
						c0.048,0.108-0.036,0.076-0.07,0.189c-0.119,0.028,0.188,0.286,0.152,0.318l-0.017-0.02c-0.021,0.132-0.25,0.22-0.261,0.348
						c-0.087,0.357,0.001,0.748-0.04,1.079c0.125,0.003-0.027-0.073,0.137-0.077c-0.021,0.195-0.176,0.393-0.197,0.59
						c-0.034,0.035-0.096,0.078-0.136,0.095c-0.046,0.063,0.06,0.037,0.043,0.083l-0.112,0.007c0.092,0.067-0.125,0.099-0.078,0.161
						c0.045,0.004,0.051,0.027,0.048,0.05c-0.119,0.001,0.008,0.069-0.101,0.065l0.009,0.001c-0.002,0.014,0.006,0.023-0.015,0.04
						c0.042,0.029,0.369,0.259,0.419,0.294l-0.02,0.012c0.003,0.036,0.092,0.052,0.113,0.031l-0.007,0.044l-0.008-0.005
						l-0.007,0.044c-0.011,0.009-0.066,0.018-0.118,0.005c0.042,0.025,0.064,0.054,0.042,0.079c0.074-0.07,0.178-0.157,0.298-0.23
						c0.041,0.03-0.022,0.085-0.009,0.117c-0.079,0.039-0.146,0.119-0.2,0.182c0.007,0.014,0.14,0.022,0.082,0.054
						c-0.092,0.015,0.003,0.035-0.063,0.061c-0.049-0.029-0.027-0.059-0.022-0.089c-0.108,0.006-0.073,0.073-0.104,0.098
						c0.034,0.011-0.001,0.068,0.029,0.105c-0.104-0.017-0.066,0.029-0.122,0.051c-0.013,0.024,0.029,0.04,0.066,0.03
						c0.113,0.008,0.068-0.098,0.187-0.063c-0.055,0.009-0.036,0.057-0.031,0.083c0.062,0,0.047-0.018,0.105-0.001
						c-0.014,0.028,0.061,0.06-0.003,0.076c-0.017-0.006-0.006-0.018-0.005-0.026c-0.006,0.038-0.403-0.203-0.367-0.154
						c0.055-0.013,0.366,0.214,0.37,0.188c0.03-0.022,0.111,0.017,0.133-0.008l-0.074-0.025c0.023-0.033,0.131-0.046,0.173-0.034
						c-0.01,0.054-0.421-0.154-0.359-0.108l0.029-0.019c0.04,0.02,0.075,0.072,0.01,0.093c0.061,0,0.083,0.026,0.104,0.048
						l-0.01,0.008c0.031,0.023,0.017,0.055,0.097,0.04c-0.01-0.133,0.62,0.088,0.655-0.041c-0.135,0.054-0.138-0.019-0.154-0.075
						c0.046-0.006,0.113-0.03,0.148-0.071c-0.01-0.035-0.049-0.021-0.083-0.027c0.031-0.02,0.056-0.058,0.127-0.053
						c-0.084-0.027,0.054-0.044,0.025-0.076c-0.039-0.029-0.037,0.002-0.078-0.02c0.009-0.043,0.021-0.104,0.037-0.139
						c0.066-0.014,0.185-0.055,0.288-0.025c-0.014,0.066-0.168-0.024-0.146,0.044c0.152-0.029,0.042,0.062,0.157,0.073
						c0.068-0.021,0.069-0.066,0.05-0.104l-0.02,0.008c-0.02-0.033-0.052-0.099,0.029-0.134c0.054,0.009,0.094-0.007,0.106,0.017
						l0.01-0.045c-0.017-0.006-0.034-0.012-0.046,0.002c-0.041-0.021-0.018-0.043,0.013-0.06c0.057-0.005-0.237-0.239-0.202-0.232
						c-0.002-0.032,0.083-0.04,0.025-0.072c-0.046-0.003,0.193,0.311,0.175,0.268c0.062-0.027-0.282-0.368-0.175-0.388
						c-0.004-0.024-0.016-0.054-0.073-0.048c0.027-0.041,0.109,0.012,0.163-0.017c-0.009-0.001-0.029,0.002-0.026-0.007l0.072-0.028
						c-0.089-0.063,0.027-0.156-0.091-0.222c0.062,0.019,0.171,0.041,0.227,0.083l-0.03,0.008c0.018,0.006,0.038,0.041,0.095,0.04
						c0.038-0.04,0.027-0.075-0.029-0.117l0.047-0.023l-0.022,0.001c0.036-0.015,0.041-0.013,0.063-0.008l0.013,0.003
						c0.167-0.025-0.106-0.159-0.02-0.232c-0.023-0.022-0.028-0.002-0.061-0.029c0.066-0.075,0.118-0.128,0.156-0.206
						c-0.072-0.025-0.101-0.027-0.176,0.003l0.024-0.06c0.192,0.054,0.183-0.111,0.375-0.052c0.044-0.018,0.053-0.053,0.022-0.087
						c-0.048-0.003-0.126-0.008-0.126-0.05c0.064-0.059,0.041-0.045,0.103-0.093c0.063-0.012,0.087,0.006,0.138,0.004
						c-0.081-0.074,0.137-0.065,0.125-0.136c-0.019-0.044-0.026-0.131-0.137-0.134C34.885,62.22,34.965,62.22,35.055,62.226z"/>
				</g>
			</g>
		</g>
		<g>
			<g>
				<g>
					<path fill="#FFFFFF" d="M85.145,55.819l-0.012,0.049c-0.008-0.156,0.031-0.321,0.076-0.482
						c-0.375,0.352-0.707,0.768,0.091,1.04c-0.424,0.029-0.622,0.371-0.517,0.379c0.078,0.07,0.141,0.143,0.194,0.215
						c-0.031-0.05-0.065-0.1-0.105-0.148c0.04,0.049,0.074,0.099,0.105,0.148c0.329,0.46,0.185,0.959,0.021,1.476
						c-0.082,0.286-0.174,1.064-0.297,1.357c-0.015,0.047-0.029,0.09-0.042,0.128c0.039-0.071,0.039-0.071,0.076-0.143
						c0.113,0.18,0.224,0.342,0.296,0.499c0.061-0.028,0.12-0.032,0.204-0.099l-0.041,0.08c0.176,0.073,0.168,0.242,0.243,0.32
						c-0.092-0.017-0.111,0.046-0.125,0.101l0.061-0.021c-0.039,0.209,0.037,0.451,0.025,0.638c0,0.026-0.035,0.046-0.066,0.058
						l0.071,0.179c-0.124-0.014-0.109,0.148-0.186,0.063c0.146,0.134,0.057,0.27,0.208,0.397c0.019,0.456,0.112,0.941,0.319,1.413
						l0.046-0.012c0.082,0.166,0.326,0.312,0.245,0.512c0.165,0.144,0.252,0.348,0.509,0.404c0.036,0.166,0.165,0.231,0.232,0.394
						c0.127-0.041,0.154,0.158,0.253,0.078c0.178-0.107,0.027-0.113,0.17-0.205l-0.042,0.003c0.192-0.427,0.301-0.854,0.361-1.285
						c-0.108-0.288-0.02-0.601-0.053-0.9c-0.046-0.323-0.129-0.672-0.235-0.949c-0.036-0.065,0.07-0.113,0.13-0.17
						c-0.057-0.255-0.014-0.578-0.083-0.866l-0.004,0.015c-0.021-0.152,0.11-0.267,0.088-0.416
						c-0.036,0.001-0.039-0.022-0.058-0.033c0.169-0.026-0.353-0.877-0.255-0.93c-0.008-0.016-0.015-0.032-0.02-0.048
						c0.076-0.314,0.406-0.64,0.376-0.91c-0.08-0.059-0.149-0.124-0.24-0.174c0.073-0.048-0.068-0.057-0.048-0.114
						c0.34-0.146,0.198-0.231,0.078-0.156c-0.046-0.12-0.016-0.241-0.028-0.348c-0.025-0.046-0.051-0.095-0.08-0.148
						c-0.028-0.042,0.022-0.066,0.103-0.087c-0.048-0.109,0.036-0.077,0.07-0.19c0.119-0.028-0.188-0.286-0.152-0.318l0.017,0.019
						c0.021-0.131,0.25-0.219,0.261-0.348c0.087-0.356-0.001-0.747,0.04-1.078c-0.125-0.003,0.027,0.073-0.137,0.077
						c0.021-0.195,0.176-0.393,0.197-0.59c0.034-0.035,0.096-0.079,0.136-0.095c0.046-0.063-0.06-0.037-0.043-0.083l0.112-0.007
						c-0.092-0.067,0.125-0.098,0.078-0.162c-0.045-0.003-0.051-0.026-0.048-0.049c0.119-0.001-0.008-0.069,0.101-0.066h-0.009
						c0.002-0.014-0.006-0.023,0.015-0.04c-0.042-0.029-0.369-0.259-0.419-0.294l0.02-0.012c-0.003-0.036-0.092-0.052-0.113-0.031
						l0.007-0.044l0.008,0.005l0.007-0.045c0.011-0.008,0.066-0.017,0.118-0.004c-0.042-0.025-0.064-0.054-0.042-0.079
						c-0.074,0.07-0.178,0.157-0.298,0.23c-0.041-0.03,0.022-0.085,0.009-0.117c0.079-0.039,0.146-0.119,0.2-0.181
						c-0.007-0.014-0.14-0.023-0.082-0.055c0.092-0.016-0.003-0.035,0.063-0.061c0.049,0.029,0.027,0.059,0.022,0.089
						c0.108-0.006,0.073-0.073,0.104-0.098c-0.034-0.011,0.001-0.068-0.029-0.105c0.104,0.017,0.066-0.029,0.122-0.051
						c0.013-0.024-0.029-0.04-0.066-0.03c-0.113-0.008-0.068,0.098-0.187,0.063c0.055-0.009,0.036-0.057,0.031-0.083
						c-0.062,0-0.047,0.018-0.105,0.001c0.014-0.028-0.061-0.06,0.003-0.076c0.017,0.006,0.006,0.018,0.005,0.026
						c0.006-0.038,0.403,0.203,0.367,0.154c-0.055,0.013-0.366-0.214-0.37-0.188c-0.03,0.022-0.111-0.017-0.133,0.007l0.074,0.026
						c-0.023,0.032-0.131,0.046-0.173,0.034c0.01-0.054,0.421,0.154,0.359,0.107l-0.029,0.02c-0.04-0.02-0.075-0.072-0.01-0.093
						c-0.061,0-0.083-0.026-0.104-0.048l0.01-0.008c-0.031-0.023-0.017-0.055-0.097-0.04c0.01,0.133-0.62-0.087-0.655,0.041
						c0.135-0.054,0.138,0.019,0.154,0.075c-0.046,0.006-0.113,0.03-0.148,0.071c0.01,0.035,0.049,0.021,0.083,0.027
						c-0.031,0.02-0.056,0.058-0.127,0.053c0.084,0.027-0.054,0.044-0.025,0.076c0.039,0.029,0.037-0.002,0.078,0.019
						c-0.009,0.044-0.021,0.105-0.037,0.14c-0.066,0.014-0.185,0.055-0.288,0.024c0.014-0.065,0.168,0.025,0.146-0.043
						c-0.152,0.029-0.042-0.061-0.157-0.073c-0.068,0.021-0.069,0.066-0.05,0.104l0.02-0.008c0.02,0.033,0.052,0.099-0.029,0.134
						c-0.054-0.008-0.094,0.007-0.106-0.017l-0.01,0.045c0.017,0.006,0.034,0.012,0.046-0.001c0.041,0.021,0.018,0.042-0.013,0.059
						c-0.057,0.005,0.237,0.24,0.202,0.232c0.002,0.032-0.083,0.04-0.025,0.072c0.046,0.003-0.193-0.311-0.175-0.268
						C85.916,54,86.26,54.34,86.153,54.361c0.004,0.023,0.016,0.053,0.073,0.047c-0.027,0.041-0.109-0.012-0.163,0.017
						c0.009,0.001,0.029-0.002,0.026,0.007l-0.072,0.028c0.089,0.063-0.027,0.155,0.091,0.222c-0.062-0.019-0.171-0.041-0.227-0.083
						l0.03-0.008c-0.018-0.006-0.038-0.041-0.095-0.04c-0.038,0.04-0.027,0.075,0.029,0.117l-0.047,0.023l0.022-0.001
						c-0.036,0.015-0.041,0.013-0.063,0.008l-0.013-0.003c-0.167,0.025,0.106,0.158,0.02,0.232c0.023,0.021,0.028,0.002,0.061,0.029
						c-0.066,0.075-0.118,0.128-0.156,0.206c0.072,0.025,0.101,0.027,0.176-0.003l-0.024,0.06c-0.192-0.054-0.183,0.111-0.375,0.052
						c-0.044,0.018-0.053,0.053-0.022,0.086c0.048,0.004,0.126,0.009,0.126,0.051c-0.064,0.059-0.041,0.045-0.103,0.093
						c-0.063,0.012-0.087-0.006-0.138-0.004c0.081,0.075-0.137,0.065-0.125,0.136c0.019,0.044,0.026,0.131,0.137,0.133
						C85.315,55.825,85.235,55.825,85.145,55.819z"/>
				</g>
			</g>
		</g>
		<g>
			<g>
				<g>
					<path fill="#FFFFFF" d="M35.055,28.483l0.012-0.048c0.008,0.156-0.031,0.32-0.076,0.482c0.375-0.353,0.707-0.769-0.091-1.041
						c0.424-0.029,0.622-0.371,0.517-0.378c-0.078-0.071-0.141-0.144-0.194-0.216c0.031,0.05,0.065,0.1,0.105,0.149
						c-0.04-0.05-0.074-0.1-0.105-0.149c-0.329-0.46-0.185-0.959-0.021-1.476c0.082-0.286,0.174-1.064,0.297-1.358
						c0.015-0.046,0.029-0.089,0.042-0.127c-0.039,0.071-0.039,0.071-0.076,0.142c-0.113-0.179-0.224-0.341-0.296-0.498
						c-0.061,0.027-0.12,0.032-0.204,0.099l0.041-0.08c-0.176-0.073-0.168-0.242-0.243-0.321c0.092,0.018,0.111-0.045,0.125-0.101
						l-0.061,0.022c0.039-0.209-0.037-0.451-0.025-0.639c0-0.025,0.035-0.045,0.066-0.057l-0.071-0.18
						c0.124,0.015,0.109-0.148,0.186-0.063c-0.146-0.134-0.057-0.27-0.208-0.397c-0.019-0.457-0.112-0.942-0.319-1.414l-0.046,0.012
						c-0.082-0.165-0.326-0.311-0.245-0.512c-0.165-0.144-0.252-0.348-0.509-0.404c-0.036-0.166-0.165-0.231-0.232-0.394
						c-0.127,0.042-0.154-0.158-0.253-0.078c-0.178,0.107-0.027,0.113-0.17,0.205l0.042-0.003c-0.192,0.427-0.301,0.854-0.361,1.285
						c0.108,0.289,0.02,0.602,0.053,0.901c0.046,0.322,0.129,0.672,0.235,0.948c0.036,0.066-0.07,0.114-0.13,0.171
						c0.057,0.254,0.014,0.578,0.083,0.865l0.004-0.014c0.021,0.152-0.11,0.267-0.088,0.416c0.036-0.001,0.039,0.022,0.058,0.033
						c-0.169,0.026,0.353,0.877,0.255,0.93c0.008,0.016,0.015,0.032,0.02,0.048c-0.076,0.314-0.406,0.64-0.376,0.91
						c0.08,0.059,0.149,0.124,0.24,0.174c-0.073,0.048,0.068,0.057,0.048,0.114c-0.34,0.146-0.198,0.231-0.078,0.156
						c0.046,0.12,0.016,0.241,0.028,0.348c0.025,0.047,0.051,0.095,0.08,0.148c0.028,0.043-0.022,0.066-0.103,0.088
						c0.048,0.108-0.036,0.076-0.07,0.19c-0.119,0.027,0.188,0.285,0.152,0.317l-0.017-0.019c-0.021,0.132-0.25,0.219-0.261,0.348
						c-0.087,0.357,0.001,0.748-0.04,1.079c0.125,0.003-0.027-0.073,0.137-0.077c-0.021,0.195-0.176,0.393-0.197,0.589
						c-0.034,0.036-0.096,0.079-0.136,0.096c-0.046,0.063,0.06,0.037,0.043,0.083l-0.112,0.006c0.092,0.068-0.125,0.099-0.078,0.162
						c0.045,0.004,0.051,0.026,0.048,0.049c-0.119,0.002,0.008,0.07-0.101,0.066l0.009,0.001c-0.002,0.014,0.006,0.023-0.015,0.04
						c0.042,0.029,0.369,0.259,0.419,0.294l-0.02,0.012c0.003,0.036,0.092,0.052,0.113,0.03l-0.007,0.045l-0.008-0.005l-0.007,0.044
						c-0.011,0.009-0.066,0.018-0.118,0.005c0.042,0.025,0.064,0.054,0.042,0.079c0.074-0.07,0.178-0.157,0.298-0.23
						c0.041,0.03-0.022,0.085-0.009,0.117c-0.079,0.039-0.146,0.119-0.2,0.181c0.007,0.014,0.14,0.023,0.082,0.055
						c-0.092,0.015,0.003,0.035-0.063,0.061c-0.049-0.029-0.027-0.059-0.022-0.089c-0.108,0.006-0.073,0.073-0.104,0.098
						c0.034,0.011-0.001,0.068,0.029,0.105c-0.104-0.017-0.066,0.029-0.122,0.051c-0.013,0.024,0.029,0.04,0.066,0.03
						c0.113,0.008,0.068-0.098,0.187-0.063c-0.055,0.009-0.036,0.057-0.031,0.083c0.062,0,0.047-0.018,0.105-0.001
						c-0.014,0.028,0.061,0.06-0.003,0.076c-0.017-0.006-0.006-0.018-0.005-0.026c-0.006,0.038-0.403-0.203-0.367-0.154
						c0.055-0.013,0.366,0.214,0.37,0.188c0.03-0.022,0.111,0.017,0.133-0.007l-0.074-0.026c0.023-0.033,0.131-0.046,0.173-0.034
						c-0.01,0.054-0.421-0.154-0.359-0.108l0.029-0.019c0.04,0.02,0.075,0.072,0.01,0.093c0.061,0,0.083,0.026,0.104,0.048
						l-0.01,0.008c0.031,0.023,0.017,0.055,0.097,0.04c-0.01-0.133,0.62,0.088,0.655-0.041c-0.135,0.054-0.138-0.019-0.154-0.075
						c0.046-0.006,0.113-0.03,0.148-0.071c-0.01-0.035-0.049-0.021-0.083-0.027c0.031-0.02,0.056-0.058,0.127-0.053
						c-0.084-0.027,0.054-0.044,0.025-0.076c-0.039-0.029-0.037,0.002-0.078-0.02c0.009-0.043,0.021-0.104,0.037-0.139
						c0.066-0.014,0.185-0.055,0.288-0.025c-0.014,0.066-0.168-0.024-0.146,0.044c0.152-0.029,0.042,0.061,0.157,0.073
						c0.068-0.021,0.069-0.066,0.05-0.104l-0.02,0.008c-0.02-0.033-0.052-0.099,0.029-0.134c0.054,0.008,0.094-0.007,0.106,0.017
						l0.01-0.045c-0.017-0.006-0.034-0.012-0.046,0.001c-0.041-0.021-0.018-0.042,0.013-0.059c0.057-0.005-0.237-0.24-0.202-0.232
						c-0.002-0.032,0.083-0.04,0.025-0.072c-0.046-0.003,0.193,0.311,0.175,0.268c0.062-0.027-0.282-0.368-0.175-0.389
						c-0.004-0.023-0.016-0.053-0.073-0.047c0.027-0.041,0.109,0.012,0.163-0.017c-0.009-0.001-0.029,0.002-0.026-0.008l0.072-0.027
						c-0.089-0.063,0.027-0.156-0.091-0.222c0.062,0.019,0.171,0.041,0.227,0.083l-0.03,0.008c0.018,0.006,0.038,0.041,0.095,0.04
						c0.038-0.041,0.027-0.075-0.029-0.118l0.047-0.022h-0.022c0.036-0.014,0.041-0.012,0.063-0.007l0.013,0.003
						c0.167-0.025-0.106-0.159-0.02-0.232c-0.023-0.022-0.028-0.003-0.061-0.029c0.066-0.076,0.118-0.128,0.156-0.207
						c-0.072-0.025-0.101-0.027-0.176,0.004l0.024-0.06c0.192,0.054,0.183-0.111,0.375-0.052c0.044-0.018,0.053-0.054,0.022-0.087
						c-0.048-0.003-0.126-0.009-0.126-0.051c0.064-0.059,0.041-0.044,0.103-0.093c0.063-0.012,0.087,0.007,0.138,0.005
						c-0.081-0.075,0.137-0.065,0.125-0.136c-0.019-0.044-0.026-0.132-0.137-0.134C34.885,28.477,34.965,28.477,35.055,28.483z"/>
				</g>
			</g>
		</g>
		<g>
			<g>
				<g>
					<path fill="#FFFFFF" d="M85.145,22.076l-0.012,0.048c-0.008-0.156,0.031-0.32,0.076-0.482
						c-0.375,0.353-0.707,0.769,0.091,1.041c-0.424,0.029-0.622,0.371-0.517,0.378c0.078,0.071,0.141,0.144,0.194,0.216
						c-0.031-0.05-0.065-0.1-0.105-0.149c0.04,0.05,0.074,0.1,0.105,0.149c0.329,0.46,0.185,0.959,0.021,1.476
						c-0.082,0.286-0.174,1.064-0.297,1.357c-0.015,0.047-0.029,0.09-0.042,0.128c0.039-0.071,0.039-0.071,0.076-0.142
						c0.113,0.179,0.224,0.341,0.296,0.498c0.061-0.027,0.12-0.032,0.204-0.099l-0.041,0.081c0.176,0.072,0.168,0.241,0.243,0.32
						c-0.092-0.018-0.111,0.045-0.125,0.101l0.061-0.022c-0.039,0.209,0.037,0.451,0.025,0.639c0,0.025-0.035,0.045-0.066,0.057
						l0.071,0.18c-0.124-0.015-0.109,0.148-0.186,0.063c0.146,0.134,0.057,0.27,0.208,0.397c0.019,0.457,0.112,0.942,0.319,1.414
						l0.046-0.012c0.082,0.165,0.326,0.311,0.245,0.512c0.165,0.144,0.252,0.348,0.509,0.404c0.036,0.166,0.165,0.231,0.232,0.394
						c0.127-0.041,0.154,0.158,0.253,0.078c0.178-0.107,0.027-0.113,0.17-0.205l-0.042,0.003c0.192-0.427,0.301-0.854,0.361-1.285
						c-0.108-0.288-0.02-0.602-0.053-0.901c-0.046-0.322-0.129-0.672-0.235-0.948c-0.036-0.066,0.07-0.114,0.13-0.171
						c-0.057-0.254-0.014-0.578-0.083-0.865l-0.004,0.014c-0.021-0.152,0.11-0.267,0.088-0.416
						c-0.036,0.001-0.039-0.022-0.058-0.033c0.169-0.026-0.353-0.877-0.255-0.93c-0.008-0.016-0.015-0.031-0.02-0.048
						c0.076-0.314,0.406-0.64,0.376-0.91c-0.08-0.059-0.149-0.124-0.24-0.174c0.073-0.048-0.068-0.057-0.048-0.114
						c0.34-0.146,0.198-0.231,0.078-0.156c-0.046-0.12-0.016-0.241-0.028-0.348c-0.025-0.047-0.051-0.095-0.08-0.148
						c-0.028-0.043,0.022-0.066,0.103-0.088c-0.048-0.108,0.036-0.076,0.07-0.19c0.119-0.027-0.188-0.285-0.152-0.317l0.017,0.019
						c0.021-0.132,0.25-0.219,0.261-0.348c0.087-0.357-0.001-0.748,0.04-1.079c-0.125-0.003,0.027,0.073-0.137,0.077
						c0.021-0.195,0.176-0.393,0.197-0.589c0.034-0.036,0.096-0.079,0.136-0.096c0.046-0.063-0.06-0.037-0.043-0.083l0.112-0.007
						c-0.092-0.066,0.125-0.098,0.078-0.161c-0.045-0.004-0.051-0.026-0.048-0.05c0.119-0.001-0.008-0.069,0.101-0.065l-0.009-0.001
						c0.002-0.014-0.006-0.023,0.015-0.04c-0.042-0.029-0.369-0.259-0.419-0.294l0.02-0.012c-0.003-0.036-0.092-0.052-0.113-0.031
						l0.007-0.044l0.008,0.005l0.007-0.044c0.011-0.009,0.066-0.018,0.118-0.005c-0.042-0.025-0.064-0.054-0.042-0.079
						c-0.074,0.07-0.178,0.157-0.298,0.23c-0.041-0.03,0.022-0.085,0.009-0.117c0.079-0.039,0.146-0.119,0.2-0.181
						c-0.007-0.014-0.14-0.023-0.082-0.055c0.092-0.015-0.003-0.035,0.063-0.061c0.049,0.029,0.027,0.059,0.022,0.089
						c0.108-0.006,0.073-0.073,0.104-0.098c-0.034-0.011,0.001-0.068-0.029-0.105c0.104,0.017,0.066-0.029,0.122-0.051
						c0.013-0.024-0.029-0.04-0.066-0.03c-0.113-0.008-0.068,0.098-0.187,0.063c0.055-0.009,0.036-0.057,0.031-0.083
						c-0.062,0-0.047,0.018-0.105,0.001c0.014-0.028-0.061-0.06,0.003-0.076c0.017,0.006,0.006,0.018,0.005,0.026
						c0.006-0.038,0.403,0.203,0.367,0.154c-0.055,0.013-0.366-0.214-0.37-0.188c-0.03,0.022-0.111-0.017-0.133,0.007l0.074,0.026
						c-0.023,0.032-0.131,0.046-0.173,0.034c0.01-0.054,0.421,0.154,0.359,0.108l-0.029,0.019c-0.04-0.02-0.075-0.072-0.01-0.093
						c-0.061,0-0.083-0.026-0.104-0.048l0.01-0.008c-0.031-0.023-0.017-0.055-0.097-0.04c0.01,0.133-0.62-0.087-0.655,0.041
						c0.135-0.054,0.138,0.019,0.154,0.075c-0.046,0.006-0.113,0.03-0.148,0.071c0.01,0.035,0.049,0.021,0.083,0.027
						c-0.031,0.02-0.056,0.058-0.127,0.053c0.084,0.027-0.054,0.044-0.025,0.077c0.039,0.028,0.037-0.002,0.078,0.019
						c-0.009,0.043-0.021,0.104-0.037,0.139c-0.066,0.014-0.185,0.055-0.288,0.025c0.014-0.066,0.168,0.024,0.146-0.044
						c-0.152,0.029-0.042-0.061-0.157-0.073c-0.068,0.021-0.069,0.066-0.05,0.104l0.02-0.008c0.02,0.033,0.052,0.099-0.029,0.134
						c-0.054-0.008-0.094,0.007-0.106-0.017l-0.01,0.045c0.017,0.006,0.034,0.012,0.046-0.001c0.041,0.021,0.018,0.042-0.013,0.059
						c-0.057,0.005,0.237,0.24,0.202,0.232c0.002,0.033-0.083,0.041-0.025,0.072c0.046,0.003-0.193-0.311-0.175-0.268
						c-0.062,0.027,0.282,0.368,0.175,0.389c0.004,0.023,0.016,0.053,0.073,0.047c-0.027,0.041-0.109-0.012-0.163,0.018
						c0.009,0,0.029-0.003,0.026,0.007l-0.072,0.027c0.089,0.063-0.027,0.156,0.091,0.222c-0.062-0.019-0.171-0.041-0.227-0.083
						l0.03-0.008c-0.018-0.006-0.038-0.041-0.095-0.04c-0.038,0.041-0.027,0.075,0.029,0.118l-0.047,0.022h0.022
						c-0.036,0.014-0.041,0.012-0.063,0.007l-0.013-0.003c-0.167,0.025,0.106,0.159,0.02,0.232c0.023,0.022,0.028,0.003,0.061,0.029
						c-0.066,0.076-0.118,0.128-0.156,0.207c0.072,0.025,0.101,0.027,0.176-0.004l-0.024,0.06c-0.192-0.054-0.183,0.111-0.375,0.052
						c-0.044,0.018-0.053,0.054-0.022,0.087c0.048,0.003,0.126,0.009,0.126,0.051c-0.064,0.059-0.041,0.044-0.103,0.093
						c-0.063,0.012-0.087-0.007-0.138-0.004c0.081,0.074-0.137,0.064-0.125,0.135c0.019,0.045,0.026,0.132,0.137,0.134
						C85.315,22.082,85.235,22.082,85.145,22.076z"/>
				</g>
			</g>
		</g>
		<g>
			<g>
				<g>
					<path fill="#FFFFFF" d="M69,78.622l0.597-0.415c-1.902,1.382-3.929,2.795-5.931,4.184c4.517-2.795,9.787-6.185,12.643-9.229
						c0.609,0.085,4.895-2.762,4.919-2.908c0.417-0.344,0.831-0.687,1.245-1.028l0.696-0.559l1.167-0.893l-1.476,1.124l-0.875,0.699
						l0.875-0.699l1.476-1.124c1.789-1.347,3.577-2.692,5.391-4.059c-2.486,0.019-4.993,0.038-7.534,0.058
						c-1.598-0.006-3.214-0.011-4.853-0.016c-3.033-0.053-6.141-0.105-9.296-0.16c-4.308-0.081-16.012-0.174-20.427-0.297
						c-0.641-0.014-1.278-0.027-1.923-0.042c1.071,0.038,1.071,0.038,2.142,0.076c-2.699,0.106-5.151,0.204-7.496,0.297
						c0.417,0.061,0.489,0.12,1.477,0.204l-1.206-0.041c-0.274,0.044-0.639,0.076-1.049,0.102c-0.208,0.011-0.424,0.021-0.645,0.033
						c-0.34,0.008-0.686,0.017-1.033,0.024c-1.421,0.029-2.828,0.046-3.655,0.083c0.224-0.092-1.278-0.11-2.637-0.124l0.684,0.062
						c-0.331-0.003-0.665-0.005-1.023-0.007c3.151,2.259,6.697,4.801,9.471,6.789c0.317,0.229,0.535,0.429,0.66,0.558l2.225,1.517
						c-0.24-0.021,1.747,1.394,0.66,0.706c1.72,1.06,3.325,2.327,4.972,3.328c5.579,3.999,11.558,8.194,17.434,12.177l-0.114-0.14
						c2.063,1.387,3.982,2.47,6.384,4.302c1.845,1.127,4.384,2.851,5.231,3.144c2.039,1.427,2.92,1.902,4.938,3.275
						c-0.436-0.472,2.013,1.261,1.097,0.479c-1.209-1.092-1.37-1.021-2.4-1.941l0.008,0.059
						c-5.088-3.904-10.232-7.748-15.468-11.598c-3.581-2.448-7.345-5.271-11.021-7.881c-3.964-2.802-8.272-5.806-11.712-8.154
						c-0.828-0.552-1.346-1.058-1.999-1.602c-1.292-0.915-2.812-1.992-4.33-3.067c0.458-0.006,0.911-0.017,1.394-0.04
						c-0.029-0.001-0.057-0.003-0.075-0.004c0.407,0.003,0.787,0.005,1.157,0.008c0.517,0.013,1.018,0.024,1.517,0.036
						c0.997,0.027,1.987,0.055,3.107,0.044c-0.011-0.036,0.336-0.039,0.504-0.058c0.389,0.169,13.193-0.353,13.984-0.255
						c0.234-0.007,0.476-0.014,0.721-0.02c4.73,0.075,9.623,0.405,13.682,0.376c0.881-0.08,1.874-0.149,2.616-0.24
						c0.718,0.073,0.856-0.067,1.721-0.048c2.197,0.339,3.483,0.197,2.35,0.077c0.649-0.009,1.292-0.019,1.919-0.026
						c0.366-0.001,0.722-0.001,1.056-0.001l0.546-0.036l-0.313,0.28c-0.176,0.162-0.436,0.287-0.684,0.366
						c-0.226,0.193-0.346,0.269-0.461,0.328c-0.056,0.028-0.114,0.059-0.197,0.1c-0.037,0.021-0.08,0.045-0.131,0.073
						c-0.116,0.079-0.251,0.17-0.411,0.278c-0.405,0.146-3.371,2.663-3.785,2.917l0.217-0.178c-1.617,1.14-2.818,1.723-4.394,2.846
						c-4.41,3.073-9.121,6.577-13.184,9.456c0.033,0.13,0.875-0.664,1.018-0.564c-2.406,1.654-4.875,3.353-7.303,5.022
						c-0.453,0.286-1.02,0.617-1.241,0.728c-0.795,0.517-0.419,0.375-0.991,0.768l-0.142-0.036
						c-0.768,0.667-1.274,0.766-2.021,1.361c-0.015,0.065-0.293,0.274-0.57,0.47c-0.083-0.086-0.842,0.617-0.866,0.5l-0.003,0.014
						c-0.167,0.117-0.28,0.209-0.495,0.339c-0.301,0.263-3.021,2.645-3.34,2.925l-0.161,0.091c-0.439,0.321-0.576,0.529-0.306,0.36
						l-0.548,0.388l0.058-0.052l-0.545,0.385c-0.106,0.063-0.251,0.1-0.128-0.054c-0.282,0.255-0.614,0.521-0.933,0.726
						c0.896-0.556,2.017-1.235,2.979-1.781c-0.342,0.298-1.042,0.724-1.432,1.021c-0.521,0.278-1.535,0.928-2.326,1.431
						c-0.163,0.126-0.2,0.316-0.613,0.542c-0.238,0.06-0.425,0.312-0.779,0.484c0.333-0.301,0.699-0.537,1.069-0.798
						c-0.126-0.043-0.935,0.583-1.243,0.768c-0.116,0.125-0.844,0.606-1.271,0.951c0.133-0.224-0.397,0.205-0.694,0.35
						c-0.307,0.206-0.474,0.378-0.331,0.32c-0.031,0.161,1.232-0.806,0.884-0.408c-0.142,0.035-0.718,0.474-1.031,0.705
						c0.032,0.053,0.243-0.117,0.073,0.078c-0.359,0.242-0.688,0.571-0.928,0.665c0.056-0.062,0.207-0.157,0.311-0.229
						c-0.461,0.324,2.244-2.115,1.673-1.659c0.186-0.066-2.392,2.176-2.084,1.959c0.296-0.176-0.135,0.234,0.167,0.044l0.277-0.292
						c0.408-0.266,0.633-0.294,0.519-0.16c-0.667,0.469,1.631-1.695,1.103-1.237l0.247-0.142c-0.216,0.205-0.836,0.695-1.121,0.82
						c0.034,0.051-0.276,0.301-0.531,0.512l-0.101,0.061c-0.259,0.224-0.654,0.491-0.427,0.427c1.616-1.178-0.704,1.272,0.888,0.168
						c-0.738,0.366,0.141-0.271,0.823-0.783c0.094-0.011,0.441-0.178,0.958-0.508c0.424-0.319,0.225-0.224,0.287-0.311
						c0.257-0.146,0.728-0.455,0.709-0.354c0.286-0.311,0.568-0.343,0.953-0.657c0.332-0.287-0.045-0.012,0.183-0.227
						c0.539-0.374,1.292-0.896,1.724-1.197c0.203-0.064,0.771-0.328,0.468,0.018c-0.815,0.57,0.209-0.358-0.618,0.266
						c0.451-0.138-0.719,0.569-0.804,0.772c0.308-0.137,0.851-0.527,1.293-0.87l-0.103,0.049c0.388-0.304,1.169-0.906,1.649-1.152
						c-0.07,0.117,0.142,0.014-0.144,0.235l0.556-0.388c0.06-0.064,0.122-0.131-0.044-0.025c0.236-0.222,0.509-0.39,0.727-0.508
						c0.093,0.002,2.789-2.304,2.72-2.211c0.396-0.287,0.541-0.287,0.894-0.612c0.003-0.017-0.225,0.155-0.561,0.417
						c-0.333,0.262-0.777,0.613-1.208,0.953c-0.857,0.682-1.651,1.322-1.395,1.126c0.375-0.193,4.329-3.468,4.638-3.56
						c0.291-0.215,0.639-0.48,0.537-0.477c0.512-0.336-0.085,0.195,0.3-0.016c0.003-0.014-0.046-0.003,0.068-0.082l0.382-0.187
						c0.719-0.628,1.917-1.35,2.656-2.026c-0.198,0.219-0.4,0.499-0.887,0.919l-0.108,0.041c-0.063,0.067-0.479,0.392-0.434,0.43
						c0.516-0.325,0.932-0.638,1.418-1.058c0.104-0.056,0.22-0.118,0.31-0.166c-0.006-0.005-0.018-0.004-0.021-0.013
						c0.19-0.094,0.176-0.076,0.127-0.013c-0.005,0.009-0.013,0.02-0.028,0.036c0.408-0.087,1.875-1.483,2.827-2.063
						c0.252-0.21,0.008-0.041,0.32-0.306c0.959-0.609,1.625-1.026,2.61-1.688c0.265-0.28,0.272-0.321-0.143-0.114l0.741-0.506
						c-0.549,0.633,1.465-0.83,0.849-0.148c0.239-0.118,0.679-0.425,1.069-0.744c0.012-0.068,0.031-0.178,0.543-0.547
						c0.75-0.461,0.56-0.344,1.193-0.733c0.177-0.05-0.025,0.126,0.029,0.149c0.864-0.723,0.875-0.463,1.727-1.092
						c0.527-0.403,1.586-1.176,1.547-1.283C68.973,78.431,69.02,78.498,69,78.622z"/>
				</g>
			</g>
		</g>
		<g>
			<g>
				<g>
					<path fill="#FFFFFF" d="M64.411,40.707l-0.096,0.055c0.138-0.107,0.331-0.227,0.582-0.376l-0.17-0.038
						c-0.039,0.051-0.098,0.102-0.167,0.147c-0.655,0.292-0.973,0.384-1.028,0.437c-0.065,0.061,0.097,0.108,0.132,0.509
						c-0.156-0.054-0.102-0.231-0.678,0.08c-0.464,0.229-1.036,0.569-1.509,0.871c0.145,0.569,0.295,1.034,0.342,1.058
						c0.152,0.35,0.298,0.685,0.439,1.008c0.043,0.028,0.083,0.057,0.125,0.1c-0.025-0.028-0.05-0.054-0.076-0.075
						c-0.018-0.025-0.014,0.015-0.049-0.063l-0.141-0.341l0.141,0.341c0.035,0.077,0.031,0.037,0.049,0.063
						c0.025,0.021,0.05,0.047,0.076,0.075c0.307,0.324,0.58,1.062,0.661,1.439c-0.36-0.297-0.728-0.645-0.962-0.899
						c-0.055-0.057-0.128-0.132-0.214-0.219l-0.055-0.057c-0.013-0.011,0.01,0.005-0.033-0.027l-0.143-0.108l-0.293-0.221
						c-0.399-0.302-0.816-0.616-1.244-0.938c-0.576,0.401-1.171,0.815-1.76,1.226c-0.059,0.024-0.107,0.04-0.144,0.048
						c-0.075,0.015-0.101-0.009-0.084-0.065c0.005-0.023,0.015-0.048,0.025-0.07c-0.039,0.075-0.038,0.075-0.056,0.135
						c-0.118,0.182-0.312,0.417-0.534,0.658c-0.037,0.02-0.065,0.021-0.084,0.006c-0.12,0.173-0.224,0.302-0.419,0.63l0.122-0.245
						c-0.267,0.251-0.117-0.186-0.162-0.286c0.122-0.075,0.195-0.241,0.251-0.371l-0.099,0.106c0.105-0.262,0.175-0.508,0.248-0.769
						l0.053-0.196c0.059-0.189,0.116-0.376,0.173-0.559c0.129-0.403,0.252-0.787,0.367-1.146l-0.034-0.025
						c-0.171-0.124-0.262-0.232-0.311-0.308c0,0-0.316-0.207-0.633-0.415c-0.154-0.102-0.309-0.202-0.425-0.278
						c-0.047-0.026-0.079-0.044-0.079-0.044c0.098-0.081-0.191-0.273,0.021-0.215c-0.371-0.089-0.505-0.297-1.026-0.488
						c-0.369-0.25-0.746-0.506-1.131-0.768c0.742-0.048,1.493-0.136,2.692-0.274c-0.01,0-0.064-0.046-0.059-0.046
						c0.482-0.037,0.964-0.109,1.381-0.169c0.115-0.575,0.251-1.16,0.464-1.674c0.079-0.775,0.331-1.832,0.179-2.2
						c0.238-0.847,0.223-1.221,0.426-2.061c-0.19,0.172,0.112-0.844-0.113-0.471c-0.346,0.488-0.211,0.564-0.499,0.982l0.045-0.001
						c-0.331,0.785-0.651,1.574-0.961,2.368c-0.154,0.401-0.308,0.799-0.46,1.194c-0.048,0.13-0.06,0.15-0.07,0.166l-0.037,0.068
						l-0.067,0.123c-0.258-0.021,0.155-0.04-1.273-0.055c-1.253,0.051-2.52,0.059-3.84,0.056c-1.32-0.003-2.652-0.006-3.967-0.008
						l0.469,0.334c1.255,0.873,2.567,1.787,3.851,2.68c0.608,0.414,1.208,0.824,1.792,1.221c0.28,0.188,0.555,0.373,0.825,0.555
						l0.197,0.132c0.061,0.04,0.149,0.101,0.144,0.093l0.097,0.046c0.126,0.051,0.127,0.156,0.117,0.224l-0.028,0.029
						c-0.016,0.094-0.037,0.188-0.074,0.317c-0.19,0.595-0.387,1.211-0.586,1.836c-0.399,1.244-0.809,2.529-1.138,3.655
						c0.017-0.045,0.033-0.092,0.045-0.123c-0.267,0.869-0.615,1.738-0.94,2.645c0.252-0.17,0.528-0.362,0.842-0.598
						c0.053-0.084,0.222-0.209,0.33-0.311c-0.042,0.135,1.716-1.252,3.254-2.489c0.738-0.595,1.485-1.196,2.055-1.655
						c0.064-0.052,0.126-0.102,0.185-0.148l0.056-0.053c0.038-0.032,0.071-0.062,0.099-0.086c0.059-0.049,0.101-0.076,0.118-0.073
						l0.099-0.097l0.072-0.041c0.075,0.072,0.152,0.146,0.231,0.221l0.103,0.108l0.048,0.053c0.01,0.013,0.025,0.03,0.103,0.093
						c0.501,0.417,1.013,0.843,1.507,1.255c1.036,0.856,2.162,1.76,3.107,2.429c0.34,0.148,0.708,0.329,0.895,0.354
						c0.443,0.411,0.27,0.113,0.671,0.427l-0.002-0.006c0.137-0.127,0.056-0.536-0.039-0.802c-0.097-0.274-0.213-0.419-0.22-0.244
						c-0.389-1.049-0.647-1.94-0.941-2.807c-0.159-0.402-0.317-0.806-0.482-1.224c-0.141-0.34-0.137-0.491-0.099-0.637
						c-0.335-0.875-0.156-0.595-0.426-1.536c-0.014-0.175-0.026-0.184-0.083-0.269c-0.063-0.088-0.147-0.205-0.214-0.298
						c0.037-0.067,0.082-0.13,0.112-0.138l-0.019,0.035c0.068-0.043,0.142-0.073,0.21-0.094l0.101-0.022
						c0.003,0.016,0.113-0.044,0.224-0.106c0.417-0.227,0.866-0.479,1.343-0.819c1.867-1.282,3.797-2.712,5.571-4.009
						c-1.034-0.003-2.027-0.006-2.978-0.01c-0.286,0.125,0.728-0.027,0.394,0.138c-1.614-0.021-3.191-0.176-5.063-0.196
						c-0.318-0.034-0.726-0.097-0.885-0.136c-0.04-0.003-0.075-0.005-0.106-0.007c-0.007-0.002-0.005-0.004-0.008-0.004h-0.009
						c-0.005,0.003-0.009,0.012-0.012,0.021c-0.007,0.019-0.016,0.041-0.034,0.033l0.024-0.112c-0.062,0.08-0.013-0.072-0.002-0.084
						c0.001-0.003,0-0.003-0.006,0.002c-0.034,0.041-0.042,0.037-0.041,0.027c0.097-0.088-0.013-0.015,0.08-0.079l-0.008,0.005
						c0.001-0.001-0.006,0.002,0.013-0.008c-0.005,0.002-0.014,0.006-0.026,0.011c-0.01,0.011-0.025,0.016-0.073-0.068
						c-0.079-0.124-0.178-0.278-0.277-0.434c-0.199-0.31-0.398-0.619-0.444-0.677l-0.001-0.068
						c-0.063-0.182-0.172-0.232-0.158-0.119l-0.067-0.228l0.016,0.023l-0.066-0.226c-0.003-0.045,0.034-0.108,0.104-0.062
						c-0.081-0.114-0.148-0.249-0.169-0.383c0.045,0.376,0.089,0.847,0.094,1.253c-0.088-0.139-0.117-0.433-0.183-0.594
						c0.011-0.221-0.057-0.646-0.107-0.977c-0.029-0.066-0.171-0.073-0.166-0.248c0.063-0.104-0.061-0.176-0.04-0.327
						c0.095,0.135,0.122,0.288,0.167,0.441c0.094-0.06-0.05-0.392-0.06-0.521c-0.051-0.046-0.112-0.35-0.201-0.524
						c0.125,0.049,0.015-0.169,0.033-0.295c-0.029-0.128-0.094-0.194-0.113-0.133c-0.121-0.005,0.096,0.515-0.073,0.379
						c0.037-0.063-0.06-0.3-0.107-0.43c-0.059,0.018-0.016,0.104-0.099,0.037c-0.035-0.149-0.155-0.28-0.122-0.384
						c0.025,0.022,0.034,0.085,0.047,0.128c-0.056-0.191,0.717,0.902,0.603,0.669c-0.031,0.08-0.699-0.966-0.661-0.839
						c0.008,0.125-0.133-0.049-0.115,0.078l0.114,0.109c0.031,0.171-0.05,0.271-0.109,0.227c-0.08-0.277,0.653,0.647,0.518,0.433
						l0.003,0.104c-0.07-0.087-0.189-0.342-0.161-0.464c-0.058,0.019-0.122-0.108-0.179-0.213l-0.003-0.042
						c-0.066-0.105-0.104-0.27-0.157-0.171c0.228,0.669-0.733-0.25-0.555,0.411c0.04-0.314,0.161,0.05,0.269,0.331
						c-0.035,0.042-0.057,0.189-0.023,0.406c0.068,0.176,0.081,0.09,0.125,0.113c0.003,0.108,0.041,0.306-0.035,0.303
						c0.125,0.112,0.021,0.238,0.103,0.396c0.085,0.135,0.032-0.021,0.104,0.07c0.06,0.221,0.142,0.527,0.193,0.716
						c-0.041,0.089-0.086,0.332-0.233,0.213c-0.095-0.338,0.201,0.076,0.067-0.266c-0.096,0.197-0.14-0.295-0.27-0.322
						c-0.029,0.132,0.043,0.356,0.122,0.539l0.007-0.044c0.072,0.159,0.21,0.48,0.191,0.685c-0.064-0.025-0.077,0.064-0.129-0.053
						l0.064,0.231c0.025,0.023,0.052,0.048,0.042-0.021c0.074,0.095,0.087,0.209,0.084,0.302c-0.045,0.044,0.618,1.136,0.575,1.116
						c0.056,0.167-0.004,0.255,0.101,0.394c0.042-0.018-0.704-1.541-0.614-1.323c-0.019,0.144,0.882,1.802,0.823,1.968l0.014,0.036
						c0.129-0.005,0.266-0.02,0.268-0.071c0.207,0.027-0.132,0.109,0.003,0.162c0.008-0.009,0.001-0.028,0.054-0.026l0.131,0.073
						c0.209-0.045,0.433-0.038,0.668-0.035c0.223,0.003,0.376,0.003,0.563-0.057c-0.114,0.063-0.241,0.171-0.418,0.228l-0.03-0.03
						c-0.01,0.018-0.259,0.037-0.254,0.095c0.324,0.038,0.354,0.027,0.565-0.028c0.027,0.015,0.059,0.03,0.077,0.046l0.005-0.022
						c0.042,0.036,0.033,0.042,0.006,0.064l-0.016,0.013c0.018,0.084,0.157,0.058,0.35,0.021c0.188-0.037,0.44-0.083,0.533-0.04
						c0.11-0.023,0.039-0.028,0.183-0.061c0.216,0.066,0.322,0.118,0.523,0.156c0.223-0.072,0.299-0.101,0.319-0.176l0.191,0.023
						c-0.575,0.192-0.006,0.183-0.634,0.375c-0.05,0.044,0.015,0.054,0.181,0.022c0.13-0.049,0.341-0.127,0.472-0.126
						c0,0.063,0.024,0.04-0.021,0.103c-0.157,0.063-0.278,0.088-0.421,0.138c0.078-0.016,0.119-0.02,0.132-0.018
						c-0.111,0.067-0.536,0.202-0.591,0.254c-0.015,0.034-0.13,0.127,0.133,0.072C64.792,40.64,64.611,40.672,64.411,40.707z"/>
				</g>
			</g>
		</g>
	</g>
</g>
</svg>
