<?xml version="1.0" encoding="utf-8"?>
<!-- Generator: Adobe Illustrator 16.0.0, SVG Export Plug-In . SVG Version: 6.00 Build 0)  -->
<!DOCTYPE svg PUBLIC "-//W3C//DTD SVG 1.1//EN" "http://www.w3.org/Graphics/SVG/1.1/DTD/svg11.dtd">
<svg version="1.1" id="Layer_1" xmlns="http://www.w3.org/2000/svg" xmlns:xlink="http://www.w3.org/1999/xlink" x="0px" y="0px"
	 width="120.2px" height="120.199px" viewBox="0 0 120.2 120.199" enable-background="new 0 0 120.2 120.199" xml:space="preserve">
<g>
	<g>
		<defs>
			<circle id="SVGID_1_" cx="60.1" cy="60.1" r="59.999"/>
		</defs>
		<clipPath id="SVGID_2_">
			<use xlink:href="#SVGID_1_"  overflow="visible"/>
		</clipPath>
		<g clip-path="url(#SVGID_2_)">
			<polygon fill="#FFFFFF" points="119.416,31.186 117.939,31.186 117.939,32.641 119.169,32.479 			"/>
			<polygon fill="#FFFFFF" points="1.031,89.336 2.261,89.176 2.507,87.721 1.031,87.721 			"/>
			<path fill="#FFFFFF" d="M3,93.213l0.984,5.816l1.477,2.26c0.41,0.779,1.066,1.318,1.969,1.615v-6.137
				c-0.328-0.891-0.738-1.697-1.229-2.424C5.132,93.885,4.066,93.508,3,93.213z"/>
			<path fill="#FFFFFF" d="M114,25.855c0.902,0.592,1.889,0.916,2.955,0.969l0.492-0.322l-0.246-2.424l-2.215-4.846
				c-0.453-0.836-1.107-1.482-1.969-1.938l-0.246,3.068l0.246,3.07L114,25.855z"/>
			<path fill="#FFFFFF" d="M98.25,11.641c-0.289-0.268-0.615-0.43-0.984-0.484v0.162h-0.492l0.246,0.969L98.25,11.641z"/>
			<path fill="#FFFFFF" d="M119.169,76.738l0.492-1.777c0.328-0.943,0.574-1.805,0.74-2.584l-0.248-2.908
				c-0.945-0.539-1.93-0.861-2.953-0.969c0.861-0.459,1.76-0.836,2.707-1.131V52.832l-0.984-3.23
				c-0.902,0.133-1.723,0.348-2.461,0.645l0.738,2.424c-0.41,0.592-0.658,1.131-0.738,1.615l1.23,0.162
				c-0.082,0.645-0.328,1.184-0.738,1.615l-2.461,1.453c-0.947-0.352-1.602-0.783-1.969-1.293l-0.494-2.584l0.248-2.746
				c0.162-0.943,0.41-1.805,0.738-2.584c-0.287-0.861-0.945-1.453-1.969-1.777c-0.779,0.727-1.193,1.479-1.232,2.262l-1.229,8.076
				c-0.412,0.725-0.902,1.371-1.479,1.939l-0.492,2.584v1.777l-1.475,0.16c-0.33-0.189-0.494-0.404-0.494-0.646l0.246-2.422
				l0.248-0.484l-0.248-1.615l-1.969-1.615c0.082-0.836,0.41-1.59,0.984-2.262l2.463-1.293c0.41-0.836,0.736-1.643,0.982-2.422
				l1.479-5.008l0.736-0.646c0.738,0.107,1.396,0.27,1.969,0.484c1.068-0.053,2.053-0.215,2.955-0.484l-1.232-2.1l-0.49-2.746
				l-0.74-0.322l-0.492-0.971c0.166-0.16,0.412-0.268,0.74-0.322c1.148,0.055,2.215,0.215,3.199,0.484l1.723,1.777l-0.492,2.422
				c0.451,0.727,0.943,1.373,1.477,1.939c-0.699,0.646-1.191,1.238-1.477,1.777c0.656,0.563,1.395,0.994,2.215,1.291l1.23,0.162
				l-0.492-4.846c-0.492-0.836-0.82-1.645-0.984-2.424l1.477-4.846c-1.193,0.162-2.256,0.377-3.199,0.646l-3.938-0.484l-2.461,0.162
				v-3.07l-1.23,0.324c-0.861,0.455-1.6,0.939-2.217,1.453l-0.736,0.646c-0.701-0.191-1.273-0.406-1.725-0.646l-0.492-1.293v-1.291
				l2.217-1.455l1.23-1.775l0.736-0.324l-0.984-4.521l-0.246-0.486v-2.422l0.246-1.293c0.451,0.242,0.777,0.51,0.984,0.809
				c0.248,0.807,0.738,1.453,1.477,1.938l0.74,0.484l0.492-3.23c-0.248-0.43-0.492-0.807-0.74-1.131l-3.936-0.322
				c-0.289-0.322-0.455-0.646-0.494-0.969l4.922-1.293l0.494-2.1h-1.23l-1.23,0.162l-0.246-1.777
				c-0.248-0.861-0.658-1.615-1.232-2.262c-0.945-0.297-1.846-0.459-2.707-0.484l-0.246,0.162l-0.984-0.162l0.738-1.293
				c-1.025-0.377-2.092-0.592-3.197-0.645l0.49-1.939c-0.779-0.514-1.6-0.943-2.461-1.291l-2.461-0.324v1.131
				c-0.289,0.834-0.947,1.371-1.971,1.615l-0.738-0.484l0.248-1.453c-0.248-0.891-0.574-1.699-0.984-2.424l-2.217-1.453L84.22,0.013
				L63.546-1.28c-1.15-0.162-2.215-0.432-3.199-0.809H57.64l-0.494,0.971c-0.164,0.186-0.41,0.293-0.736,0.322L53.947-1.28
				l-3.199-0.162c-0.287,0.133-0.453,0.295-0.492,0.484c0.82,0.646,1.723,1.078,2.707,1.293l2.953,0.968
				c0.531,0.594,0.945,1.186,1.23,1.777l-2.461-1.291L51.486,0.98l-2.953-1.13L46.81-2.089c-1.232,0.295-2.379,0.51-3.445,0.646
				L25.644,1.789l-2.463,1.453l-2.707,1.131l-7.139,4.199l-5.414,5.33l-2.705,4.199l-2.709,7.107
				c-0.369,0.996-0.615,1.857-0.738,2.586l-0.984,8.236l-0.246,0.324v2.422l-0.246,2.746l1.477,2.102
				c-0.287,0.699-0.779,1.238-1.477,1.615L-0.2,45.725v2.26c0,0.996,0.164,1.857,0.492,2.586C1.031,51.242,1.935,51.672,3,51.861
				l-2.461,1.293l-0.246,0.484v2.424l-0.246,2.746l0.246,5.814l0.984,2.262l-0.738,2.422c0.576,0.834,1.477,1.264,2.707,1.293
				l0.738-0.162l-0.492-2.1l0.738-2.262l-1.723-0.322L3,64.623c0.697-0.539,1.438-1.023,2.217-1.453l1.723-0.646l0.738,0.646
				c0.283,0.807,0.451,1.561,0.492,2.26l-0.74,2.424c0.123,0.807,0.371,1.561,0.74,2.262l-0.74,2.262
				c0.412,0.725,1.15,1.154,2.215,1.291l0.986-2.262l0.982-8.236c0.533-0.646,1.109-1.24,1.723-1.777l0.248-2.908
				c0.164-0.836,0.82-1.375,1.969-1.615h0.246v2.746c-0.164,0.861-0.41,1.67-0.738,2.424c0.656,0.537,1.395,0.914,2.215,1.131v1.129
				l0.246,0.486l-0.246,1.129c-1.025,0.377-1.932,0.754-2.707,1.131l-1.477,1.939l-0.984,2.422l-0.246,2.908l-0.248,0.969
				l-3.199-0.484l-2.707,0.324l1.723,1.938l-0.49,2.584c0.695,0.617,1.268,1.264,1.723,1.939l-2.215,0.322L5.46,81.584l-1.969-1.615
				L3,79.322l0.984-1.455c-0.408-0.781-0.82-1.48-1.229-2.1l-0.248-1.291l1.477-0.484c-0.123-0.809-0.615-1.4-1.477-1.777
				l-2.215-0.324l-0.246,1.131l0.246,2.908l1.477,1.938l-0.738,2.424c-0.209,0.994-0.453,1.855-0.738,2.584v1.293l2.215-0.324
				l7.137-0.16v0.969c0.125,0.887,0.699,1.533,1.725,1.938l1.723-1.775l2.215-0.162l0.738,0.809l0.246,0.645
				c-0.164,0.594-0.41,1.131-0.738,1.615l-1.477,2.1c-0.656,0.619-1.313,1.156-1.969,1.617l1.477,1.938l-0.248,0.322l-0.244,2.424
				v3.715c-0.576-0.377-0.984-0.807-1.23-1.293c-0.492-0.645-1.068-1.238-1.723-1.775c-0.41,0.861-0.656,1.668-0.738,2.422
				c0.328,0.779,0.82,1.48,1.475,2.1c1.271,0.109,2.502,0.27,3.693,0.484c-0.699,0.594-1.518,0.971-2.461,1.131
				c-1.191,0.324-2.094,0.754-2.707,1.293l-0.248,1.453l0.248,0.162l1.23-0.162c0.285-0.189,0.615-0.297,0.982-0.322l0.248,1.615
				c0.123,0.861,0.369,1.67,0.738,2.424l0.492,0.484h3.445c0.246,0.107,0.41,0.268,0.492,0.484
				c-0.287,0.563-0.455,1.102-0.492,1.615l2.953,0.646c-0.287,0.51-0.453,0.994-0.492,1.453l0.984,0.484l3.199,0.969
				c0.248-0.082,0.41-0.189,0.492-0.322l0.248-2.262l2.213-0.162l0.492,0.809l-0.736,2.422c0.41,0.809,1.064,1.4,1.967,1.777
				l10.338,2.1c1.477,0.133,2.789,0.295,3.938,0.484l3.939,0.324c1.6,0.215,2.99,0.322,4.184,0.322l8.121,0.484l3.447,0.809
				c0.82-0.352,1.559-0.729,2.215-1.131l3.691,0.484h2.461l0.248-0.322l-0.248-0.809l-3.445-0.809
				c-1.025-0.322-1.932-0.699-2.707-1.129l-0.984-1.131v-0.324l0.984,0.162c0.82,0.592,1.721,1.023,2.707,1.293
				c1.148,0.186,2.215,0.455,3.199,0.807l2.461,1.293c0.697,0.725,1.6,1.156,2.707,1.291l8.123-0.645l12.553-3.717l10.336-5.006
				l5.17-5.492l5.168-8.563l1.477-4.846c0.369-0.969,0.615-1.83,0.738-2.584l1.23-10.984l-0.492-2.746L119.169,76.738z
				 M105.632,15.195l0.74,0.162l-0.74,0.484V15.195z M14.076,104.359c0.41,0.215,0.656,0.484,0.738,0.807
				C14.359,104.977,14.113,104.707,14.076,104.359z M106.125,77.545c0.248,0.107,0.41,0.27,0.492,0.484l-0.738,0.969
				c-0.41,0.594-0.984,1.023-1.723,1.293l-5.168,1.453l-0.738-0.969l5.414-2.262C104.525,78.109,105.345,77.785,106.125,77.545z
				 M92.343,85.299h1.475v1.453l-1.475,0.162V85.299z M91.605,77.383c0.203-0.645,0.529-1.238,0.982-1.775l1.23,0.322l-0.736,1.938
				L91.605,77.383z M93.328,78.354c0.656,0.215,1.229,0.484,1.723,0.807C94.103,79.133,93.533,78.863,93.328,78.354z M94.312,70.762
				v-0.971l0.492,0.162L94.312,70.762z M94.556,64.139l-2.213-0.484v-0.971l3.199,0.162l0.246,0.162l-0.246,0.807L94.556,64.139z
				 M94.312,61.877l-0.738-1.293c0.082-0.215,0.244-0.377,0.492-0.484l2.461-1.291c0.369,0.107,0.613,0.268,0.738,0.484
				l-0.492,1.453C96.117,61.363,95.296,61.74,94.312,61.877z M94.066,58.162l-3.201-0.969c-0.287-0.594-0.453-1.186-0.492-1.777
				l1.232-0.324c1.682,0.025,3.158,0.135,4.43,0.324l1.477,0.484c0.285-0.484,0.615-0.916,0.984-1.293h1.723l-0.492,3.23
				c0.123,0.484,0.369,0.916,0.738,1.293l-0.246,0.646c-0.902-0.082-1.723-0.244-2.461-0.484
				C96.65,58.672,95.417,58.295,94.066,58.162z M89.634,52.67l0.248-1.293h0.982l-0.244,1.131L89.634,52.67z M95.789,51.539
				c0.49,0.24,0.902,0.51,1.23,0.807C96.404,52.186,95.994,51.916,95.789,51.539z M101.695,72.377l1.23-0.971
				c0.246,0.109,0.41,0.27,0.492,0.484l-0.984,0.971L101.695,72.377z M103.664,69.146l-0.246,0.969l-0.736-0.162l-0.248-0.322
				l0.492-0.646L103.664,69.146z M105.386,49.439h-2.705v-0.809h2.705V49.439z M104.156,28.764
				c-0.738,0.646-1.475,1.184-2.215,1.615c-0.82,0.24-1.559,0.402-2.215,0.484l0.246-0.969c0.492-0.783,1.066-1.482,1.723-2.1h2.707
				L104.156,28.764z M97.019,32.963l0.492-1.291c1.189,0.293,1.846,0.832,1.969,1.615c0.246,0.887,0.738,1.641,1.479,2.26
				c0.326,0.27,0.49,0.539,0.49,0.809c-0.287,0.51-0.615,0.941-0.984,1.293c-0.947,0.617-1.846,1.102-2.707,1.453l-1.969,0.322
				c-0.41-0.027-0.656-0.189-0.738-0.484l1.229-2.262c0.533-0.836,0.945-1.643,1.232-2.422
				C97.347,33.771,97.183,33.34,97.019,32.963z M102.681,21.656l1.475,0.322l-0.738,2.262l0.246,1.615
				c-1.23-0.189-2.379-0.459-3.445-0.807l-1.969-0.484c-0.779,0.053-1.438,0.107-1.971,0.16l-0.49,0.646l0.738-2.584l0.492-0.809
				l2.215,0.324C100.464,22.273,101.613,22.059,102.681,21.656z M98.003,9.703l2.461,0.322v3.555H99.48
				c-0.902,0.107-1.723,0.27-2.461,0.484l0.492,1.777l1.969,0.969l1.479,1.131c-0.084,0.484-0.33,0.914-0.74,1.291
				c-0.574,0.377-1.148,0.646-1.723,0.809c-0.82-0.162-1.477-0.432-1.969-0.809l-0.984-1.453l-0.492-1.777l-0.246-6.299H98.003z
				 M96.279,44.594l8.123-2.746l3.445-0.646h2.217l0.244,0.969c-0.779,0.51-1.6,0.887-2.461,1.131l-16.242,5.492l-1.971,0.322
				l-0.244-0.807c0.037-0.783,0.529-1.375,1.475-1.777l2.953-0.807L96.279,44.594z M86.681,59.131l-0.246-1.293l0.246-0.484
				c1.27,0.377,2.174,0.916,2.709,1.615L86.681,59.131z M89.142,61.393l-0.982,0.162l0.49-0.971
				C88.935,60.854,89.103,61.123,89.142,61.393z M85.943,32.316l-1.477,1.455c-0.861-0.406-1.518-0.836-1.969-1.293
				c-0.328-0.646-0.492-1.293-0.492-1.938l3.199-0.162c0.861-0.215,1.516-0.539,1.969-0.969c0.902,0.107,1.807,0.27,2.709,0.484
				l-0.492,2.1L85.943,32.316z M30.318,89.66l0.494-1.455l3.445-0.322c0.615-0.514,1.107-1.051,1.477-1.615
				c0.777,0.295,1.436,0.617,1.969,0.969c0.246,0.809,0.41,1.563,0.492,2.262c-1.025,0.27-2.01,0.432-2.953,0.484l-2.953,0.969
				l-1.723-0.16v-0.646L30.318,89.66z M34.257,61.393l0.246,0.322l-0.246,0.809c-0.615,0.186-1.193,0.295-1.723,0.322l-1.723-1.453
				H34.257z M31.304,58.969l0.246-0.322h0.738l-0.246,0.969l-0.492-0.162L31.304,58.969z M46.996,25.93l2.953,0.16l-1.441,0.209
				l0.025-0.119l-1.213-0.039C47.218,26.064,47.048,26.037,46.996,25.93z M82.251,21.979h0.984l-1.23,1.615
				c-0.902,0.564-1.807,1.049-2.707,1.455c-0.455-0.754-0.699-1.508-0.74-2.262C79.75,22.273,80.98,22.004,82.251,21.979z
				 M82.744,15.518l0.492-1.131c1.107-0.244,1.928-0.674,2.463-1.291h1.723l-0.494,1.131L82.744,15.518z M80.775,26.664l3.445,0.16
				c-0.82,0.457-1.641,0.779-2.461,0.971l-6.154,2.746c-0.061-0.01-0.068-0.041-0.125-0.055l-0.055-2.064L80.775,26.664z
				 M83.236,40.232c-0.738,0.484-1.477,0.861-2.217,1.131l-2.705,0.645l-2.461,0.971l-0.492,0.484l0.492,4.521l0.244,0.486
				l-0.244,1.291l-0.49,0.963L75.3,46.604c-0.492,0.162-0.824,0.432-0.986,0.809l-1.723,0.322l-0.738-0.16
				c0.326-0.564,0.818-0.996,1.477-1.293l-0.982-1.453c-0.783-0.295-1.604-0.457-2.461-0.484l-0.248-0.324l0.248-1.131l0.736-0.484
				l-1.23-0.322l-2.953,1.131l-1.477-0.484l-0.986-1.293l-2.705,0.162l0.244-1.455l-1.967-0.969c0.244-0.484,0.652-0.861,1.23-1.131
				l2.461-0.646l1.969,0.646h7.139l2.313-0.414l0.207,1.148v1.615h1.725l5.66-1.291l1.23-0.162
				C83.4,39.449,83.318,39.881,83.236,40.232z M83.482,48.793c-0.574-0.406-0.902-0.836-0.984-1.293
				C83.113,47.902,83.441,48.334,83.482,48.793z M72.347,92.156c0.051,0.037,0.074,0.084,0.121,0.123l-0.037,0.111
				C72.406,92.311,72.355,92.234,72.347,92.156z M73.083,90.537c-0.658-0.398-1.15-0.83-1.477-1.289l-0.49-1.293l0.244-0.484
				c0.492-0.322,1.064-0.484,1.723-0.484c0.291,0.332,0.629,0.574,0.955,0.834L73.083,90.537z M38.687,79.322l2.492-0.9v1.955
				l-2.246,0.883l-1.969,0.162l-0.246-0.809C37.003,79.885,37.662,79.455,38.687,79.322z M36.964,72.377l0.246-1.131
				c0.285,0.078,0.451,0.186,0.492,0.322l0.246,0.322l-0.246,0.809C37.333,72.645,37.087,72.537,36.964,72.377z M48.123,96.156
				c-0.029-0.049-0.127-0.074-0.143-0.125c0.094,0.029,0.145,0.076,0.221,0.111L48.123,96.156z M46.503,73.256
				c-0.576-0.455-0.906-0.939-0.984-1.453h0.984V73.256z M45.333,55.586v-1.648c0.781,0.393,1.578,0.719,2.4,0.904
				C46.986,55.197,46.175,55.422,45.333,55.586z M46.75,51.611l-0.494,1.455c-0.357-0.023-0.607-0.143-0.922-0.203v-1.002
				c-0.01-0.174-0.084-0.313-0.123-0.475L46.75,51.611z M45.765,48.865h0.984l-0.246,1.293C46.05,49.781,45.804,49.35,45.765,48.865
				z M41.179,88.932c-0.012,0.021-0.02,0.061-0.029,0.082l-0.986,0.484c-0.285-0.781-0.453-1.535-0.492-2.262h1.508V88.932z
				 M49.949,80.203v-1.131c0.693,0.27,1.27,0.592,1.723,0.969L49.949,80.203z M51.179,86.18h-1.477v-1.293h1.232L51.179,86.18z
				 M50.687,81.172c-0.166,0.699-0.412,1.346-0.738,1.938l-0.984-0.484c0.121-0.539,0.367-1.023,0.738-1.453H50.687z M48.964,78.102
				l-0.984,0.162l0.492-0.969h0.984L48.964,78.102z M51.917,42.082c0.572,0.27,0.984,0.592,1.23,0.969
				C52.531,42.811,52.121,42.486,51.917,42.082z M53.886,52.904l-0.246,0.646c-0.33-0.217-0.492-0.432-0.492-0.646H53.886z
				 M53.64,28.189l-1.477,0.162c-0.289-0.564-0.453-1.102-0.492-1.615h1.969V28.189z M50.195,56.135l-0.246-1.615
				c0.9,0.459,1.393,0.998,1.477,1.615H50.195z M49.949,50.643c0.449,0.432,0.693,0.861,0.738,1.293
				C50.275,51.504,50.029,51.074,49.949,50.643z M49.21,40.951l-1.477,0.484l0.738-1.777c0.777,0.107,1.434,0.27,1.969,0.484
				L49.21,40.951z M39.181,92.082l1.998-1.164v2.176c-0.172,0.094-0.344,0.205-0.523,0.281l-0.736,0.322l-0.738,0.162l-1.479-0.322
				l-1.723-0.809L39.181,92.082z M53.148,73.742v-0.809h1.23C54.048,73.285,53.64,73.555,53.148,73.742z M61.681,18.146l1.248,0.549
				c-0.018,0.035-0.039,0.066-0.057,0.102l-1.049,0.275l-0.207-0.818L61.681,18.146z M68.658,18.07
				c-0.057-0.035-0.088-0.094-0.148-0.129h0.205C68.703,17.988,68.673,18.027,68.658,18.07z M70.929,24.24l1.723-0.322
				c0.723,0.031,1.313,0.184,1.84,0.387l-1.652,0.979c-0.133,0.154-0.203,0.313-0.303,0.471c-0.492-0.076-0.953-0.195-1.361-0.383
				h-0.246V24.24z M75.326,24.773l-0.002-0.064c0.01,0.006,0.027,0.006,0.037,0.016C75.355,24.744,75.332,24.754,75.326,24.773z
				 M68.468,15.357l-0.738,0.16l0.248-0.484C68.261,15.113,68.427,15.221,68.468,15.357z M60.837,16.486
				c-0.318-0.16-0.586-0.342-0.82-0.537c0.084,0.025,0.193,0.025,0.268,0.057C60.455,16.17,60.714,16.307,60.837,16.486z
				 M62.412,21.533l2.305,1.65l-1.404,0.23c0.271-0.24,0.439-0.5,0.48-0.789l-1.725-0.162l-0.492,0.971h1.615l-0.443,0.072
				c0.121,0.459,0.367,0.836,0.738,1.131l2.953-0.484l1.23-1.455c0.172-0.088,0.346-0.109,0.52-0.186l-0.951,1.244l1.969,0.969
				l2.215,3.715l0.432,0.426v1.102l1.23,2.424l0.711,0.465l0.654,3.611c-0.131-0.223-0.236-0.477-0.379-0.686l-0.986-1.615
				c-0.617-0.455-1.273-0.832-1.967-1.131c-0.738-0.268-1.316-0.592-1.725-0.969l-1.23-1.615l-1.477-1.291
				c-0.658-0.377-1.23-0.754-1.723-1.131l-3.938-2.1c-0.455-0.512-0.947-0.941-1.477-1.293c-0.578-0.51-0.904-1.049-0.984-1.615
				c0.297-0.516,0.684-0.943,1.121-1.328L62.412,21.533z M70.13,35.297h0.986c-0.045,0.621-0.373,1.105-0.986,1.455l-0.984,0.16
				L70.13,35.297z M69.146,34.006l0.246-0.809l0.494,0.646L69.146,34.006z M66.685,33.035v1.293
				c-0.084,0.592-0.246,1.131-0.492,1.615c-0.453-0.51-0.945-0.941-1.477-1.293c0.08-0.617,0.324-1.154,0.738-1.615H66.685z
				 M62.748,35.781c-0.658-0.348-1.15-0.725-1.477-1.131c-0.783-0.377-1.355-0.807-1.723-1.291l2.707,0.322L62.748,35.781z
				 M58.07,42.082l0.74,0.16l-0.986,0.486L58.07,42.082z M57.087,36.428l0.244-1.615h1.479l0.492,1.131l-0.248,0.484H57.087z
				 M58.318,70.35h1.23l0.244,0.322l-0.244,0.809H58.07L58.318,70.35z M57.332,62.918l-1.23,0.324l-0.492-0.969
				C56.263,62.434,56.841,62.65,57.332,62.918z M58.81,83.756h-1.23c0.326-0.564,0.738-1.049,1.23-1.453h0.982
				C59.75,82.924,59.423,83.408,58.81,83.756z M59.302,79.557l0.982-0.162c0.654,0.244,1.064,0.566,1.23,0.969
				c0.574-0.133,0.986-0.348,1.232-0.645c0.9-0.217,1.723-0.324,2.461-0.324v1.293c-1.643,0.297-3.119,0.459-4.43,0.484
				C60.119,80.662,59.626,80.123,59.302,79.557z M62.994,69.381h-0.984l0.984-1.131c0.365,0.053,0.613,0.16,0.738,0.322
				C63.607,68.924,63.359,69.193,62.994,69.381z M64.224,74.387c-0.412-0.025-0.738-0.078-0.984-0.16l0.246-1.131L64.224,74.387z
				 M62.501,75.518l-0.492,1.293l-0.494,0.162v-0.486l0.494-1.291L62.501,75.518z M62.255,95.547
				c-0.658-0.377-1.068-0.807-1.23-1.291C61.556,94.633,61.966,95.063,62.255,95.547z M62.994,83.756l1.723-0.484l4.676,0.162
				c-0.658,0.566-1.477,0.943-2.461,1.131c-1.15,0.512-2.299,0.781-3.445,0.807L62.994,83.756z M70.869,61.627L68.9,61.949
				l0.246-0.969L70.869,61.627z M70.378,56.135l0.49-0.646l0.492,0.646H70.378z M71.607,63.727
				c-0.371,0.592-0.863,1.076-1.477,1.453c-0.822,0.594-1.723,1.023-2.707,1.293c0.039-0.672,0.285-1.264,0.738-1.777L71.607,63.727
				z M71.117,72.771h-1.23l-0.248-1.775h1.23L71.117,72.771z M69.638,87.633l-1.723,0.162l-0.246-0.809
				C68.447,87.123,69.103,87.338,69.638,87.633z M76.345,35.063v-0.807h1.23C77.207,34.604,76.794,34.873,76.345,35.063z
				 M78.558,32.479c0.248-0.646,0.658-1.184,1.232-1.615l0.984,0.322v1.777l-0.984,0.162C79.216,32.963,78.806,32.748,78.558,32.479
				z M73.794,11.42c0.014-0.01,0.018-0.02,0.027-0.029l0.063-0.006C73.853,11.395,73.826,11.41,73.794,11.42z M73.578,10.1V9.453
				l0.736,0.162L73.578,10.1z M68.38,12.934c-0.369,0.045-0.805,0.146-1.143,0.162l-0.246-1.131l1.342-0.734L68.38,12.934z
				 M41.15,67.369h0.029v1.564c-0.012,0.016-0.016,0.035-0.029,0.051c-1.148,0.43-2.299,0.754-3.447,0.969
				c-0.533-0.27-0.861-0.592-0.984-0.969l1.23-0.484C39.015,68.041,40.082,67.664,41.15,67.369z M36.472,56.707l0.986,0.486
				C37.003,57.164,36.677,57.002,36.472,56.707z M36.718,63.654v2.584L35.734,66.4c-0.287-0.783-0.453-1.537-0.492-2.262l1.23-0.484
				H36.718z M37.21,104.682c0.369,0.215,0.617,0.432,0.738,0.646c-0.656,0.295-1.23,0.51-1.723,0.646
				c-0.902,0.51-1.805,0.939-2.707,1.291c-0.41-0.404-0.656-0.836-0.74-1.291L37.21,104.682z M37.21,98.221l0.738-1.131l1.971-1.777
				h1.26v2.746h-2.246L37.21,98.221z M75.734,74.646l-0.066-4.371h1.908c0.656,0.486,1.23,0.971,1.723,1.455
				c0.246,0.592,0.41,1.184,0.492,1.777c-1.025,0.293-2.012,0.51-2.955,0.645C76.351,74.27,76.013,74.447,75.734,74.646z
				 M79.298,52.832l-0.984,0.16l0.244-1.615c1.232-0.459,2.461-0.781,3.693-0.969h1.477c-0.246,0.51-0.574,0.941-0.984,1.293
				L79.298,52.832z M83.236,62.846l0.984,0.324l-0.984,0.322V62.846z M83.482,55.9l0.246-2.1l1.477,0.646l-0.492,1.775l-0.492,0.324
				L83.482,55.9z M94.312,26.18c-0.164,0.645-0.41,1.238-0.738,1.775l-1.23,0.324c-0.289-0.107-0.455-0.27-0.492-0.484l-0.246-0.484
				l0.246-1.455L94.312,26.18z M91.851,7.441c-0.986-0.053-1.559-0.377-1.725-0.969C91.072,6.635,91.642,6.957,91.851,7.441z
				 M89.882,12.287c0.654,0.188,1.148,0.457,1.475,0.809l-1.475,0.16V12.287z M90.865,18.102v1.455l-0.982,0.162l-0.248-1.617
				H90.865z M79.791,6.311c1.107-0.404,2.174-0.729,3.199-0.969l0.492-0.484c-0.328-0.566-0.492-1.16-0.492-1.777l5.17,1.131
				l-0.494,1.131l-2.461,1.453l-8.613,3.555c-0.348,0.16-0.697,0.26-1.047,0.398V8.016l1.291-0.574
				C77.822,7.012,78.806,6.635,79.791,6.311z M69.207,1.789l3.445,0.16c-0.369,0.617-0.861,1.104-1.477,1.455l-0.736,0.16h-0.494
				l-0.492,0.162l-1.23-0.162C68.468,2.918,68.798,2.326,69.207,1.789z M59.607-0.958l-0.244,0.646l-0.492-0.646H59.607z
				 M39.671,2.111h1.23l0.248,1.293l-1.23,0.322l-1.479-0.162C38.687,3.027,39.099,2.541,39.671,2.111z M32.289,24.24h6.338v1.635
				l-16.428-0.504l-0.494-0.646l-1.723-1.291v-0.646L32.289,24.24z M23.673,64.785c-0.861,0.215-1.6,0.484-2.215,0.807l-1.23,0.162
				l-0.246-5.17l2.707-0.16v0.645l0.74-1.131c0.244-0.537,0.654-1.021,1.23-1.453c0.775,0.133,1.434,0.35,1.967,0.646
				c-0.082,0.51-0.326,0.941-0.736,1.293l-1.725,0.969c0.369,0.295,0.863,0.51,1.479,0.646l2.461,0.484
				c0.697,0.295,1.268,0.617,1.723,0.969c0,0.592-0.164,1.076-0.492,1.453l-0.74,0.162L23.673,64.785z M24.66,68.5
				c-0.617-0.082-1.027-0.299-1.23-0.646C24.001,68.041,24.412,68.256,24.66,68.5z M28.105,34.902l-1.479,0.16v-1.775l1.479,0.16
				V34.902z M29.087,42.979l-0.736,1.291l-1.479,0.324l-0.49-0.646l0.49-1.453L29.087,42.979z M27.121,41.686
				c-0.779-0.053-1.355-0.27-1.725-0.646C26.052,41.201,26.626,41.416,27.121,41.686z M25.89,56.223
				c1.064,0.217,1.723,0.646,1.967,1.293H24.66C24.863,56.977,25.273,56.547,25.89,56.223z M29.335,67.691l0.982-0.16
				c0.248,0.107,0.412,0.268,0.494,0.484l-0.984,0.969l-0.74-0.324L29.335,67.691z M20.474,8.572l0.984-2.262
				c0.656,0.564,1.148,1.156,1.477,1.777l-0.492,1.615l0.246,0.646l0.492,0.484l-0.246,1.777l-1.23,0.969l0.984,0.646
				c-0.531,0.377-1.107,0.592-1.723,0.645l-0.246-3.553l-0.246-0.484V8.572z M22.199,17.617l-0.494,2.102l-0.246,0.322h-1.23
				l-0.246-0.809l-0.244-2.26C20.597,17.105,21.419,17.32,22.199,17.617z M18.998,25.371c0.902,0.025,1.477,0.295,1.723,0.809
				c-0.207,0.592-0.533,1.076-0.982,1.453c-0.781-0.162-1.439-0.432-1.971-0.809C17.972,26.258,18.382,25.773,18.998,25.371z
				 M16.783,10.672l0.738,0.162l-0.492,0.807h-0.984C16.167,11.289,16.414,10.967,16.783,10.672z M5.216,27.795l0.49,0.807H4.968
				L5.216,27.795z M5.46,32.963l-0.244,0.484l-0.248-0.484H5.46z M7.183,36.355l-0.244,1.293l-1.723,0.322l-0.494-1.777
				L7.183,36.355z M6.939,43.947C6.16,43.893,5.5,43.785,4.968,43.625c0.123-0.299,0.371-0.568,0.738-0.809h1.723L6.939,43.947z
				 M10.875,21.01L9.4,23.594c-0.455,0.941-0.947,1.75-1.479,2.424c-1.313-0.322-1.969-0.916-1.969-1.777
				c0.41-0.807,1.068-1.453,1.969-1.938c0.777-0.809,1.354-1.563,1.723-2.262c0.576-1.051,0.986-2.021,1.23-2.908h2.217
				l-0.246,1.777C12.066,19.635,11.408,20.336,10.875,21.01z M13.091,29.41l0.244-0.971h2.463l-0.246,1.131l-1.723,0.162
				L13.091,29.41z M14.814,42.654c-0.369-0.053-0.617-0.16-0.738-0.322l0.246-1.453c0.492-0.461,1.066-0.838,1.723-1.131l5.66-1.293
				l0.494,0.162v0.807l-3.201,1.293l-1.969,1.131L14.814,42.654z M18.505,47.662c-0.369,0.457-0.861,0.725-1.477,0.809l0.246-0.809
				H18.505z M17.275,51.377c-0.287-0.107-0.453-0.215-0.492-0.322l0.246-0.969l0.738,0.16l-0.246,0.971L17.275,51.377z
				 M15.06,70.762h2.707v0.807H15.06V70.762z M17.029,90.629l3.199-1.293c0.246,0.109,0.41,0.27,0.492,0.484l-0.492,1.777
				c-1.23,0.432-2.379,0.754-3.445,0.969l-0.738-0.16L17.029,90.629z M19.244,83.844c0.205-0.861,0.777-1.506,1.723-1.938
				l3.199-1.131h1.23l-0.736,1.615c-0.617,0.727-1.027,1.371-1.23,1.939v3.068l-0.248,1.293c-0.574,0-1.066-0.109-1.477-0.324
				l-0.984-2.422L19.244,83.844z M16.783,98.383c-0.287-0.107-0.453-0.217-0.492-0.324l0.492-2.1l-0.246-1.615l1.969,0.162
				c0.861,0.592,1.76,1.023,2.707,1.291l2.461-0.16v-1.615h1.23l-0.492,1.775l-1.23,2.424c-0.533-0.162-0.945-0.377-1.23-0.646
				l-2.213,0.162C18.71,98.031,17.726,98.246,16.783,98.383z M25.644,110.496l-2.955,0.324l-2.707-0.324v-2.1l0.492-1.775
				c1.066-0.055,2.051-0.162,2.955-0.324l-0.248-2.1c-0.533-0.432-1.191-0.754-1.969-0.969c-0.779-0.215-1.438-0.484-1.969-0.809
				c0.205-0.537,0.615-0.969,1.23-1.291c0.531-0.514,1.189-0.836,1.969-0.971c0.697,0.188,1.27,0.457,1.723,0.809l1.23,3.553
				l0.248,4.201l0.246,0.484L25.644,110.496z M23.673,76.092L10.384,79.16c-0.289-0.566-0.455-1.105-0.492-1.615l2.953-0.646
				l8.613-2.746l3.201-0.645c0.861-0.406,1.6-0.838,2.213-1.293c0.984-0.377,1.971-0.699,2.955-0.969h1.23l0.246,0.322l-0.492,0.969
				c-0.656,0.594-1.314,1.078-1.969,1.455L23.673,76.092z M26.134,94.021c0.082-0.729,0.248-1.375,0.492-1.939
				c0.738,0.133,1.396,0.35,1.969,0.646l0.248,0.484l-0.492,1.131C27.49,94.344,26.751,94.236,26.134,94.021z M28.351,112.758
				c1.021,0.107,1.682,0.432,1.967,0.969C29.416,113.512,28.761,113.189,28.351,112.758z M28.843,107.105
				c0.654,0.16,1.23,0.377,1.723,0.645C29.787,107.697,29.212,107.482,28.843,107.105z M29.335,100.645h1.23l0.246,1.615
				C29.828,101.883,29.335,101.344,29.335,100.645z M37.703,115.828v1.453l-1.969-0.162c-0.861-0.592-1.846-0.969-2.955-1.131
				c-0.326-0.244-0.49-0.512-0.49-0.807c0.49-0.377,0.984-0.701,1.477-0.969l7.414-3.355v3.24l-4.215,1.084L37.703,115.828z
				 M49.763,118.412l-0.492,0.162l-1.477-0.162v-0.01l3.91-1.09c0.076,0.051,0.201,0.072,0.273,0.131
				C51.279,117.898,50.541,118.223,49.763,118.412z M60.837,120.027l0.738,1.131C61.123,120.834,60.878,120.457,60.837,120.027z
				 M60.347,114.697v-0.686l1.416-0.695l0.305-0.33v1.549L60.347,114.697z M81.267,118.088l-1.477,0.162l-0.492-1.131l0.492-0.484
				l2.215,0.162L81.267,118.088z M99.726,112.598c-0.41,0.484-0.902,0.861-1.477,1.129c-0.533-0.566-0.861-1.158-0.984-1.775
				l0.738-0.324l-0.738-2.584c0.123-0.566,0.369-1.105,0.738-1.615l0.492-0.484l-0.246-1.615c0.943,0.455,1.436,1.049,1.477,1.777
				l0.246,2.746L99.726,112.598z M100.218,103.391l-1.23,0.16l-0.738-0.322l0.246-0.646l0.246-2.424
				c0.861,0.295,1.516,0.672,1.969,1.131L100.218,103.391z M99.726,97.252l-25.195-1.293l-0.109-2.008l23.336,0.877
				c0.82,0.432,1.477,0.861,1.969,1.293c0.451,0.402,0.777,0.779,0.984,1.131H99.726z M101.941,94.668
				c-0.945,0-1.764-0.162-2.461-0.486c0.164-0.592,0.492-1.129,0.984-1.615c0.777,0.162,1.516,0.377,2.217,0.646
				C102.556,93.752,102.31,94.236,101.941,94.668z M102.925,108.559c0.984,0.107,1.477,0.432,1.477,0.969
				C103.664,109.313,103.171,108.99,102.925,108.559z M107.109,91.76l-2.461,0.162l-0.246-1.131h2.707V91.76z M114.986,77.223
				c-0.615,0.186-1.191,0.293-1.725,0.322l-0.244-1.131C113.755,76.602,114.412,76.871,114.986,77.223z M112.031,98.059
				l-1.475,2.424c-0.576,0.939-0.986,1.803-1.23,2.584l-1.723,0.162l0.244-1.939l0.986-2.746l1.723-2.26l2.215-2.102
				c1.023,0.594,1.6,1.293,1.723,2.102L112.031,98.059z M114.494,92.406l0.492-0.809c0.283,0.27,0.451,0.539,0.492,0.809H114.494z
				 M113.261,84.006l0.248-1.615h1.723l0.246,1.615H113.261z"/>
			<path fill="#FFFFFF" d="M22.199,109.043l1.475-0.322l-0.738-0.646C22.568,108.422,22.32,108.746,22.199,109.043z"/>
		</g>
	</g>
	<g>
		<path fill="#231F20" d="M48.627,90.962l-1.561-1.457l-6.606-6.944l6.819-2.489c0.176,0.038-0.936,0.359-1.038,0.508
			c0.295-0.034,1.023-0.3,1.566-0.518l-0.134,0.027c0.371-0.163,1.096-0.419,1.613-0.618c-0.092-0.09-0.168-0.17-0.226-0.239
			c0.203,0.104,0.073-0.061,0.416,0.216l-0.582-0.512c-0.104-0.066-0.205-0.131-0.056,0.014c-0.341-0.236-0.564-0.473-0.742-0.671
			c0.002-0.019-0.217-0.195-0.519-0.446c-0.268-0.219-0.623-0.51-0.976-0.799c-0.654-0.556-1.297-1.097-1.242-1.075
			c-0.158-0.163-0.244-0.279-0.332-0.39c0.033,0.031,0.062,0.06,0.098,0.094c0.295,0.292,0.705,0.661,1.105,1.015
			c0.397,0.362,0.784,0.677,1.064,0.914c0.304,0.256,0.463,0.388,0.322,0.264c-0.216-0.238-1.211-1.063-2.204-1.979
			c-0.984-0.904-1.904-1.861-1.966-2.005c-0.242-0.257-0.518-0.583-0.51-0.479c-0.364-0.476,0.198,0.065-0.035-0.295
			c-0.013-0.001,0.001,0.046-0.085-0.06l-0.207-0.358c-0.66-0.655-1.407-1.792-2.048-2.522c0.218,0.189,0.475,0.398,0.899,0.855
			l0.042,0.104c0.068,0.06,0.397,0.45,0.434,0.404c-0.333-0.487-0.651-0.876-1.047-1.354c-0.053-0.102-0.11-0.215-0.156-0.302
			c-0.005,0.006-0.005,0.018-0.013,0.021c-0.088-0.186-0.07-0.172-0.01-0.124c0.009,0.005,0.02,0.013,0.035,0.027
			c-0.083-0.386-1.388-1.846-1.809-2.842c-0.174-0.265-0.039-0.012-0.258-0.34c-0.247-0.489-0.414-0.921-0.585-1.354
			c-0.164-0.437-0.378-0.86-0.542-1.403c-0.194-0.312-0.232-0.329-0.147,0.11l-0.281-0.813c0.229,0.332,0.13-0.06,0.035-0.437
			c-0.089-0.38-0.124-0.759,0.074-0.379c-0.024-0.25-0.15-0.735-0.308-1.182c-0.046-0.036-0.186-0.08-0.286-0.666
			c-0.077-0.82-0.058-0.611-0.123-1.306c0.034-0.166,0.103,0.076,0.147,0.041c-0.197-1.021,0.069-0.912-0.016-1.872
			c-0.021-0.613,0.039-1.845-0.076-1.882c0.083-0.837,0.179-0.826,0.253-0.734l0.093-0.672c-0.153,1.084-0.215,2.216-0.232,3.342
			c0.033,0.552,0.039,1.108,0.086,1.665l0.26,1.663c-0.059-0.609-0.119-1.229-0.179-1.852c0.019-0.629-0.012-1.245,0.028-1.885
			c0.098-1.293,0.257-2.581,0.494-3.818c0.052-0.257,0.104-0.51,0.155-0.762l0.015-0.113l0.008-0.137
			c0.002-0.024,0.001-0.063,0.005-0.086l0.036-0.004c0.054-0.004,0.135-0.004,0.274,0.024c0.019,0.005,0.033,0.006,0.058,0.015
			l0.28,0.195c0.186,0.126,0.372,0.254,0.561,0.383c0.36,0.243,0.697,0.46,1.005,0.648c0.151,0.278,0.795,0.938,1.74,1.819
			c0.177-0.613,0.378-1.393,0.581-2.228c0.201-0.856,0.398-1.698,0.574-2.446c0.206-0.842,0.34-1.502,0.311-1.546
			c0.128-1.038,0.273-2.086,0.433-3.145c0.34-2.267,0.747-4.589,1.2-6.957c0.235-1.184,0.473-2.378,0.713-3.586
			c0.378-1.821,0.759-3.662,1.144-5.521c-1.729,0.556-3.477,1.116-5.238,1.683c-1.152,0.357-2.313,0.718-3.48,1.081
			c-1.427,0.453-3.714,1.181-6.251,1.987c-3.372,1.088-7.076,2.283-10.296,3.322c1.61,1.278,3.108,2.466,4.439,3.521
			c0.146,0.12,0.289,0.236,0.427,0.349l0.012,0.026c0.01,0.017-0.003,0.022-0.015,0.021l-0.012-0.005
			c-0.004,0.005,0.003-0.017-0.01,0.01l-0.102,0.223l-0.406,0.896c0.233-0.495,0.35-0.742,0.467-0.989
			c0.081-0.178,0.066-0.13,0.074-0.133c0.006,0,0.015,0,0.027-0.006c0.007,0.002,0.013,0.006,0.018,0.013l0.006,0.011
			c-0.004,0.019,0.021-0.033-0.023,0.08c-0.119,0.313-0.236,0.623-0.354,0.93c-0.229,0.612-0.455,1.212-0.676,1.801
			c-0.319,1.224-0.626,2.401-0.926,3.554c0.179-0.388,0.257-0.443,0.622-1.371l-0.386,1.15c-0.109,0.543-0.224,1.449-0.349,2.362
			c-0.132,0.912-0.277,1.832-0.343,2.423c-0.018-0.132-0.097,0.03-0.137,0.334c-0.035,0.304-0.07,0.744-0.102,1.158l0.08-0.322
			c-0.345,3.14-0.105,6.777,0.281,9.553c0.071,0.384,0.091,0.678,0.092,0.857c0,0,0.549,2.634,0.607,2.62
			c-0.174-0.172,0.471,2.188,0.063,0.964c0.162,0.496,0.317,0.973,0.471,1.444c0.179,0.478,0.354,0.949,0.53,1.42
			c0.181,0.469,0.332,0.945,0.542,1.394c0.214,0.446,0.434,0.884,0.662,1.308c1.42,3.121,3.371,6.133,5.799,8.748
			c2.421,2.62,5.313,4.829,8.429,6.47l-0.13-0.12c1.121,0.513,2.143,1.06,3.308,1.433c0.577,0.218,1.16,0.438,1.769,0.668
			c0.29,0.089,0.587,0.183,0.89,0.282c0.366,0.404,1.538,0.483,1.538,0.483c0.116,0.028,0.228,0.057,0.347,0.086l0.579,0.137
			C49.231,91.504,48.712,91.041,48.627,90.962z M47.944,79.946c-0.592,0.207-0.399,0.072-0.369,0.018l0.37-0.135
			C48.024,79.839,48.048,79.87,47.944,79.946z"/>
		<path fill="#231F20" d="M36.811,30.751c0.099,0.16,0.843-0.098,1.127-0.378c0.292-0.098,0.585-0.195,0.876-0.293l-0.178,0.007
			c2.326-0.794,4.325-1.657,7.205-2.449c0.961-0.359,2.062-0.771,3.075-1.151l0.169-0.051l-1.353,7.942
			c-0.054,0.261-0.254,1.488-0.254,1.488c0.24-0.187,0.716-0.524,0.988-0.67c1.69-1.063,3.625-1.71,5.735-2.081
			c0.132,0.075-0.971,0.188-1.108,0.34c0.329-0.015,0.977-0.116,1.511-0.239h-0.111c0.469-0.125,1.438-0.232,1.964-0.223
			c-0.117,0.067,0.112,0.081-0.238,0.135c0,0,0.165-0.017,0.33-0.033c0.166-0.008,0.332-0.016,0.332-0.016
			c0.083-0.022,0.169-0.045-0.023-0.045c0.311-0.061,0.626-0.057,0.869-0.04c0.037,0.018,0.918-0.085,1.784-0.149
			c0.865-0.105,1.708-0.059,1.655-0.063c0.229,0.012,0.373,0.038,0.514,0.06c-0.046-0.001-0.087-0.002-0.137-0.003
			c-0.42-0.004-0.976-0.021-1.513-0.009c-1.077,0.068-2.076,0.147-1.759,0.131c0.103,0.01,0.494-0.004,1.028-0.036
			c0.535-0.048,1.21-0.063,1.883-0.046c0.673,0.015,1.35-0.013,1.867,0.046c0.517,0.068,0.884,0.128,0.954,0.167
			c0.352,0.054,0.779,0.112,0.707,0.042c0.591,0.126-0.198,0.078,0.214,0.201c0.012-0.008-0.028-0.034,0.105-0.01l0.391,0.138
			c0.459,0.079,1.011,0.243,1.569,0.401c0.561,0.151,1.123,0.311,1.59,0.459c-0.307-0.045-0.732-0.108-1.235-0.183l-0.097-0.059
			c-0.091-0.007-0.591-0.126-0.592-0.066c0.551,0.216,1.062,0.274,1.649,0.481c0.1,0.057,0.211,0.12,0.298,0.169
			c0-0.008-0.006-0.018-0.001-0.024c0.176,0.108,0.154,0.105,0.077,0.1c-0.01,0-0.022,0-0.044-0.004
			c0.142,0.146,0.686,0.335,1.319,0.548c0.627,0.226,1.301,0.576,1.762,0.854c0.293,0.127,0.04-0.011,0.406,0.146
			c0.925,0.601,1.501,1.108,2.43,1.774c0.324,0.177,0.366,0.174,0.069-0.171l0.654,0.576c-0.725-0.354,1.126,1.175,0.335,0.767
			c0.082,0.097,0.22,0.229,0.387,0.371c0.103,0.087,0.217,0.185,0.334,0.283c0.062-0.007,0.163-0.015,0.413,0.241
			c0.243,0.344,0.209,0.27,0.346,0.507c-0.146-0.012-0.15-0.054-0.27-0.082c0.023,0.076-0.126,0.058-0.186,0.04
			c-0.038-0.011-0.071-0.024-0.097-0.035l-0.031-0.012c-0.034,0.006,0.052-0.023-0.122,0.032c-0.444,0.147-1.098,0.364-1.66,0.552
			c-0.727,0.244-1.273,0.445-1.22,0.486c-0.561,0.172-0.936,0.275-1.189,0.335c0.191,0.221,0.073,0.184-0.104,0.099l0.875,0.821
			c-0.352-0.323-0.705-0.647-1.076-0.988c0.963-0.297,1.938-0.597,2.919-0.899l1.161-0.354l0.379-0.113
			c0.024-0.006,0.016-0.001,0.026-0.003c0.008-0.012,0.094,0.025,0.07-0.034l-0.335-0.385c0.065,0.109,0.107,0.192,0.146,0.272
			c-0.394,0.068-3.063,0.854-4.906,1.394c1.165,1.094,2.306,2.164,3.425,3.213c0.358,0.326,0.713,0.648,1.064,0.967
			c0.302,0.262,0.6,0.521,0.896,0.778c1.188,1.007,2.344,1.882,3.425,2.543c0.036,0.61,3.643,4.196,3.79,4.189
			c0.829,0.657,1.658,1.333,2.489,2.026l0.745,0.626l1.155,1.012c0.837,0.744,1.677,1.49,2.522,2.241
			c0.442-2.026,0.888-4.068,1.34-6.139c0.331-1.43,0.666-2.877,1.006-4.343c0.717-2.911,1.451-5.896,2.196-8.925
			c0.361-1.521,0.862-3.629,1.469-6.186c-1.851,0.681-3.921,1.441-6.062,2.228c-0.049,0.003-0.109,0.055-0.14,0.015l-0.041-0.072
			l-0.02-0.034l-0.009-0.017l-0.046-0.069c-0.43-0.668-0.918-1.291-1.394-1.906c-1.902-2.465-4.013-4.438-5.324-5.608
			c-0.514-0.417-1.024-0.83-1.541-1.25c0.847,0.712,0.857,0.699,1.689,1.424c-2.208-1.684-4.377-2.956-6.534-4.037
			c0.348,0.25,0.396,0.321,1.212,0.914c0,0-0.259-0.165-0.517-0.331c-0.254-0.173-0.527-0.313-0.527-0.313
			c-1.062-0.386-3.373-1.494-4.542-1.814c0.276,0.003-0.609-0.341-1.394-0.643l0.292,0.172c-2.991-1.103-6.662-1.724-9.495-1.892
			c-0.395-0.021-0.689-0.06-0.868-0.099c0,0-0.681-0.004-1.362-0.008c-0.68,0.01-1.353,0.065-1.353,0.065
			c0.206-0.131-2.248-0.032-0.959-0.153c-0.506,0.054-1.013,0.093-1.521,0.125c-0.506,0.044-1.012,0.126-1.515,0.184
			c-1.002,0.152-2.005,0.193-2.94,0.503c-0.746,0.154-1.497,0.31-2.253,0.466c-0.752,0.169-1.485,0.45-2.232,0.674l-1.119,0.358
			c-0.367,0.14-0.723,0.315-1.084,0.473c-0.716,0.334-1.455,0.623-2.152,1c-2.311,1.241-4.387,2.87-6.265,4.673
			c-0.091,0.026-1.087,1.064-1.195,1.179l-1.58,1.655l2.154-0.721C36.512,30.851,36.661,30.801,36.811,30.751z M76.417,40.434
			c0,0.05-0.04-0.008-0.021-0.039C76.401,40.405,76.412,40.423,76.417,40.434z M54.792,33.119c-0.592,0.101-0.333-0.01-0.271-0.063
			c0.132-0.021,0.259-0.048,0.392-0.066C54.955,33.02,54.938,33.061,54.792,33.119z"/>
		<path fill="#231F20" d="M95.488,48.023l-0.611,2.865c-0.026,0.125-0.053,0.249-0.079,0.374c-0.186-0.005-0.59,2.764-0.725,3.396
			l0.084-0.152c-0.485,2.357-0.746,4.475-1.512,7.299c-0.13,0.869-0.337,1.981-0.55,3.151l-0.01,0.042l-6.167-7.249
			c0,0.319-0.177,4.562-1.221,7.048c-0.132,0.075,0.316-0.916,0.245-1.108c-0.143,0.289-0.377,0.887-0.53,1.401l0.055-0.094
			c-0.111,0.463-0.469,1.345-0.766,1.772c0.002-0.132-0.128,0.054,0.005-0.267l-0.279,0.586c-0.019,0.082-0.038,0.167,0.051,0.002
			c-0.083,0.301-0.244,0.563-0.396,0.75c-0.048,0.014-0.405,0.802-0.793,1.556c-0.426,0.729-0.843,1.45-0.827,1.396
			c-0.13,0.189-0.234,0.29-0.335,0.391c0.029-0.038,0.055-0.071,0.086-0.113c0.239-0.334,0.514-0.808,0.794-1.252
			c0.572-0.884,0.937-1.801,0.813-1.515c-0.063,0.08-0.242,0.416-0.48,0.88c-0.272,0.442-0.62,1.008-0.966,1.569
			c-0.749,1.085-1.56,2.124-1.719,2.176c-0.238,0.256-0.521,0.569-0.423,0.55c-0.429,0.408,0.044-0.204-0.285,0.062
			c0,0.014,0.045-0.004-0.05,0.091l-0.328,0.24c-0.618,0.678-1.679,1.498-2.388,2.146c0.183-0.22,0.366-0.497,0.813-0.915
			l0.099-0.049c0.054-0.072,0.415-0.424,0.367-0.457c-0.446,0.371-0.832,0.679-1.285,1.093c-0.098,0.056-0.206,0.118-0.291,0.166
			c0.007,0.005,0.018,0.004,0.021,0.013c-0.18,0.093-0.166,0.075-0.122,0.014c0.005-0.01,0.012-0.021,0.025-0.037
			c-0.191,0.049-0.621,0.417-1.156,0.795c-0.522,0.394-1.117,0.847-1.61,1.052c-0.26,0.173-0.011,0.038-0.334,0.257
			c-0.964,0.497-1.685,0.72-2.714,1.171c-0.308,0.195-0.325,0.232,0.112,0.146l-0.807,0.285c0.342-0.234-0.096-0.115-0.406-0.045
			c-0.25,0.048-0.426,0.066-0.218-0.116c-0.126,0.008-0.339,0.063-0.583,0.169c-0.054,0.069-0.145,0.181-0.48,0.282
			c-0.088-0.001-0.179,0.05-0.187-0.004c0.035-0.12,0.06-0.201,0.082-0.278c0.047-0.152,0.089-0.287,0.207-0.675
			c0.123-0.255,0.1-0.042,0.176-0.146c0.131-0.928,0.397-1.117,0.607-2.085c0.039-0.193,0.091-0.445,0.143-0.702
			c-0.937,0.3-1.878,0.613-1.952,0.713c-1.299,0.388-1.303,0.305-1.149,0.165l-1.143,0.332c1.414-0.424,2.854-0.856,4.327-1.299
			c-0.171,0.703-0.345,1.415-0.519,2.13l-0.268,1.079L67.87,79.34c-0.015,0.075,0.043,0.01,0.062,0.021l0.169-0.04l-0.129-0.002
			c-0.017-0.009-0.047,0.014-0.049-0.021l0.085-0.286c0.113-0.382,0.227-0.766,0.34-1.151c0.221-0.769,0.441-1.54,0.661-2.307
			c-1.696,0.476-3.369,0.944-5.005,1.402c-0.935,0.262-1.852,0.537-2.729,0.825c-1.756,0.577-2.544,1.028-4.794,1.757
			c0,0-5.216,1.116-5.282,1.246c-0.49,0.186-0.977,0.369-1.463,0.554l-0.74,0.271c-0.282,0.101-0.39,0.147-0.934,0.326
			c-1.358,0.445-2.716,0.891-4.081,1.339c1.6,1.472,3.208,2.951,4.839,4.453c1.124,1.063,2.262,2.141,3.415,3.232
			c1.138,1.105,2.289,2.225,3.455,3.357c1.17,1.152,2.354,2.317,3.546,3.492c0.942,0.905,2.16,2.076,3.83,3.682
			c0.316-1.927,0.687-4.187,1.079-6.58l0.089-0.523l0.02-0.081c0.009-0.023,0.009-0.058,0.024-0.07l0.075-0.002
			c0.044-0.003,0.002,0.005,0.114-0.007l0.615-0.071c0.41-0.048,0.819-0.097,1.227-0.145c0.814-0.091,1.595-0.316,2.36-0.462
			c0.761-0.172,1.509-0.289,2.176-0.528c0.676-0.21,1.31-0.406,1.885-0.585c0.287-0.089,0.56-0.174,0.815-0.253
			c0.248-0.101,0.479-0.195,0.693-0.282c0.6-0.246,1.194-0.491,1.798-0.74c-1.007,0.398-1.007,0.398-2.013,0.797
			c2.466-1.146,4.6-2.372,6.518-3.758c-0.362,0.163-0.458,0.197-1.21,0.568c0.274-0.156,0.896-0.554,0.896-0.553
			c0.405-0.382,1.127-0.923,1.863-1.459c0.696-0.59,1.393-1.196,1.825-1.597c-0.148,0.218,0.623-0.313,1.21-0.889l-0.272,0.183
			c2.324-2.084,4.601-4.915,6.12-7.245c0.231-0.312,0.396-0.551,0.512-0.687l1.263-2.353c0.062,0.265,1.03-1.963,0.577-0.763
			c0.34-0.948,0.778-1.857,1.128-2.789c0.313-0.945,0.621-1.882,0.859-2.803c0.2-0.662,0.336-1.347,0.507-2.025
			c0.141-0.685,0.372-1.355,0.438-2.062c0.167-1.403,0.459-2.806,0.448-4.241c0.024-0.715,0.049-1.431,0.073-2.148
			c-0.018-0.72-0.078-1.443-0.117-2.164C96.579,54.351,95.488,48.023,95.488,48.023z M84.406,65.296
			c0.202-0.55,0.171-0.278,0.187-0.2c-0.044,0.121-0.082,0.246-0.128,0.366C84.417,65.484,84.389,65.451,84.406,65.296z"/>
	</g>
	<g>
		<g>
			<path fill="none" d="M60.1,0.1L60.1,0.1c-33.132,0-60,26.861-60,59.996c0,33.137,26.868,60.004,60,60.004
				c33.135,0,60-26.867,60-60.004C120.1,26.961,93.235,0.1,60.1,0.1"/>
			<g>
				<path fill="#FFFFFF" d="M-0.229,50.444c0,0-0.079,0.391-0.125,0.787c-0.053,0.395-0.107,0.789-0.107,0.789
					c0.629-5.12,2.108-10.387,4.177-15.304c-1.208,2.643-2.231,5.514-3.069,8.469c-0.827,2.961-1.358,6.025-1.687,9.025
					c-0.298,3.005-0.316,5.949-0.135,8.686c0.219,2.734,0.618,5.261,1.206,7.434c-0.057,0.255-0.008,1.147,0.152,2.341
					c0.206,1.182,0.44,2.684,0.836,4.124c0.697,2.907,1.755,5.614,1.851,5.698l0.708,1.624l0.78,1.602
					c0.496,1.083,1.106,2.115,1.667,3.179l-1.172-2.183c-0.356-0.741-0.712-1.481-1.067-2.219c0.354,0.737,0.71,1.478,1.067,2.219
					l1.172,2.183c3.721,6.622,8.742,12.879,14.982,18.108c6.219,5.239,13.69,9.393,21.868,11.863
					c2.255,0.723,5.563,1.499,9.426,2.026c3.864,0.521,8.293,0.698,12.705,0.369c4.413-0.316,8.792-1.147,12.574-2.248
					c3.789-1.089,6.967-2.437,9.188-3.44c1.259-0.642,2.544-1.224,3.773-1.953c-1.029,0.585-1.563,0.841-2.096,1.099
					c-0.536,0.252-1.051,0.544-2.133,1.023c5.314-2.668,9.768-5.76,13.643-9.211c-0.728,0.555-0.878,0.627-2.638,1.888
					c0,0,0.525-0.4,1.05-0.8c0.533-0.391,1.032-0.823,1.032-0.823c0.426-0.428,1.008-0.974,1.669-1.581
					c0.641-0.635,1.349-1.337,2.061-2.043c0.684-0.736,1.372-1.476,2-2.151c0.589-0.706,1.122-1.344,1.541-1.846
					c-0.151,0.237,0.125-0.016,0.561-0.523c0.423-0.524,1.027-1.273,1.594-1.977l-0.491,0.526c2.11-2.705,4.121-5.838,5.775-9.053
					c1.653-3.215,2.997-6.486,3.912-9.412c0.288-0.806,0.457-1.424,0.605-1.784c0,0,0.096-0.355,0.241-0.888
					c0.157-0.529,0.317-1.247,0.469-1.967c0.151-0.72,0.325-1.434,0.419-1.978c0.09-0.544,0.15-0.906,0.15-0.906
					c0.021,0.234,0.264-0.962,0.445-1.871c0.138-0.915,0.233-1.541,0.094-0.141c0.506-4.38,0.754-8.865,0.332-13.045
					c-0.458-7.477-2.406-15.108-5.812-22.112c-3.385-7.012-8.203-13.377-13.953-18.506l0.241,0.293
					c-2.01-1.795-4.012-3.357-6.235-4.842c-2.203-1.515-4.618-2.967-7.502-4.49c-2.094-1.024-4.724-2.051-7.056-2.84
					c-2.345-0.76-4.407-1.222-5.323-1.348c-1.3-0.293-2.403-0.555-3.418-0.73c-1.019-0.156-1.933-0.321-2.851-0.43
					c-0.919-0.092-1.836-0.184-2.846-0.285c-1.015-0.042-2.121-0.146-3.423-0.172c1.341,0.145-5.065,0.055-2.496,0.189
					c3.434,0.253,3.629,0.127,6.519,0.537l-0.081-0.053C73.29,2.193,79.872,4.2,85.959,7.226c6.088,3.032,11.635,7.16,16.377,12.099
					c6.471,6.472,11.624,15.299,14.224,24.448c0.757,2.447,1.268,5.015,1.708,7.594c0.365,2.591,0.649,5.204,0.679,7.784
					c0.162,5.161-0.459,10.14-1.405,14.442c-0.201,1.033-0.466,1.901-0.737,2.725c-0.255,0.828-0.532,1.608-0.861,2.442
					c-1.253,3.844-3.124,8.08-5.6,12.113c-2.486,4.025-5.514,7.866-8.743,11.103c0.126-0.117,0.247-0.232,0.322-0.313
					c-3.443,3.432-6.395,5.607-10.355,8.191c0.04,0.018-0.578,0.416-0.868,0.625c-0.098,0.037-0.55,0.281-1.263,0.69
					c-0.356,0.205-0.779,0.45-1.258,0.727c-0.49,0.256-1.038,0.541-1.632,0.851c-2.38,1.229-5.599,2.67-8.978,3.762
					c-3.374,1.108-6.89,1.84-9.659,2.232c-0.693,0.093-1.337,0.194-1.922,0.257c-0.587,0.05-1.113,0.093-1.564,0.131
					c-0.903,0.078-1.511,0.116-1.722,0.099c-0.495,0.019-1.007,0.038-1.53,0.059c-5.031,0.086-10.135-0.618-14.892-1.847
					c-4.771-1.202-9.161-3.031-12.979-4.969c-0.424-0.196-0.86-0.398-1.299-0.601c-0.428-0.225-0.859-0.45-1.282-0.672
					c-0.423-0.221-0.839-0.437-1.237-0.645c-0.387-0.221-0.756-0.433-1.101-0.629c-1.248-0.872-1.561-0.93-3.045-2.015
					c-1.781-1.513-3.158-2.731-3.88-3.367c-0.732-0.623-0.838-0.628,0.031,0.204c-2.933-2.47-5.555-5.309-7.674-7.969
					c-1.019-1.21-1.937-2.484-2.872-3.776c-0.752-1.127-1.126-1.785-1.414-2.407c-1.764-2.978-1.214-2.121-2.797-5.379
					c-0.13-0.423-1.128-2.461-1.983-4.59c-0.416-1.067-0.803-2.153-1.12-3.027c-0.274-0.888-0.48-1.564-0.542-1.814l0.179,0.566
					c-1.094-4.057-1.375-6.852-1.768-10.912c-0.26-2.828-0.245-5.739-0.117-8.657c0.17-2.919,0.572-5.838,1.133-8.698
					c0.601-2.854,1.413-5.632,2.358-8.286c0.996-2.637,2.124-5.145,3.371-7.459c-0.063-0.15-1.033,2.076-1.236,2.112
					c2.765-5.566,6.46-10.712,10.847-15.163c0.782-0.813,1.855-1.686,2.245-2.02c1.484-1.328,0.835-0.83,1.938-1.787l0.222-0.044
					c0.762-0.748,1.426-1.169,2.039-1.622c0.614-0.453,1.245-0.854,2.051-1.448c0.063-0.094,0.646-0.537,1.241-0.928
					c0.097,0.08,1.842-1.189,1.813-1.042l0.013-0.019c0.358-0.236,0.621-0.391,1.086-0.634c0.173-0.11,0.704-0.448,1.415-0.901
					c0.716-0.447,1.649-0.948,2.568-1.48c0.936-0.499,1.891-0.964,2.647-1.354c0.771-0.352,1.35-0.613,1.542-0.701l0.367-0.124
					c1.062-0.438,1.511-0.646,0.864-0.459l1.347-0.448l-0.153,0.061l1.338-0.446c0.249-0.076,0.551-0.093,0.181,0.063
					C43.37,3.696,44.227,3.43,45,3.231c-2.159,0.516-4.834,1.238-7.031,2.036c0.438-0.195,1.067-0.437,1.706-0.679
					c0.649-0.216,1.305-0.434,1.799-0.599c0.304-0.085,0.68-0.191,1.104-0.312c0.434-0.106,0.917-0.225,1.42-0.349
					c1.004-0.272,2.112-0.504,3.084-0.69c0.424-0.093,0.681-0.329,1.667-0.44C49.242,2.205,49.849,2,50.668,1.921
					c-0.918,0.222-1.834,0.338-2.769,0.534C48.076,2.499,50.198,2.11,50.944,2c0.343-0.095,2.175-0.29,3.32-0.452
					c-0.493,0.142,0.937-0.004,1.625-0.001c0.777-0.046,1.272-0.126,0.954-0.139c0.246-0.132-3.102,0.168-2.027-0.032
					c0.292,0.041,1.815-0.122,2.638-0.15c0.008-0.063-0.565-0.033-0.034-0.105c0.918-0.009,1.891-0.107,2.419-0.058
					c-0.172,0.021-0.551,0.021-0.819,0.025c0.598,0.003-1.023,0.098-2.584,0.297c-1.562,0.205-3.065,0.436-2.303,0.343
					c-0.202-0.008,1.476-0.239,3.117-0.432c1.644-0.126,3.248-0.247,2.85-0.238c-0.729-0.013,0.523-0.124-0.233-0.127l-0.838,0.096
					c-1.032,0.003-1.46-0.094-1.098-0.146c0.868,0-0.364,0.081-1.611,0.285c-1.249,0.191-2.521,0.375-1.79,0.288l-0.6,0.023
					c0.617-0.102,2.284-0.252,2.929-0.239c0.001-0.075,0.843-0.114,1.542-0.154l0.248,0.004c0.722-0.049,1.733-0.061,1.263-0.129
					c-4.259,0.118,2.805-0.691-1.336-0.622c1.746,0.11-0.585,0.109-2.403,0.259c-0.179-0.029-0.995-0.044-2.31,0.033
					c-1.129,0.154-0.66,0.134-0.871,0.195C52.363,0.873,51.162,1,51.309,0.91c-0.866,0.208-1.408,0.188-2.455,0.396
					c-0.917,0.203,0.069,0.025-0.579,0.182c-1.376,0.293-3.309,0.707-4.383,1.029c-0.434,0.054-1.745,0.304-0.845-0.06
					c2.068-0.572-0.739,0.385,1.4-0.246c-0.482,0.059-0.01-0.086,0.628-0.273c0.646-0.157,1.459-0.345,1.645-0.447
					c-0.354,0.047-0.884,0.151-1.471,0.28c-0.585,0.14-1.218,0.339-1.797,0.509l0.238-0.047c-1.029,0.274-3.03,0.995-4.147,1.292
					c0.239-0.138-0.251-0.014,0.486-0.277c0,0-0.348,0.116-0.696,0.232c-0.342,0.133-0.685,0.265-0.685,0.265
					c-0.167,0.084-0.34,0.171,0.059,0.027c-0.629,0.292-1.281,0.524-1.789,0.69c-0.088-0.006-1.858,0.828-3.534,1.722
					c-1.679,0.893-3.24,1.88-3.144,1.811c-0.91,0.53-1.188,0.564-2.017,1.178c-0.011,0.035,0.483-0.338,1.279-0.796
					c0.793-0.461,1.818-1.13,2.87-1.667c2.057-1.166,4.09-2.032,3.443-1.763c-0.209,0.083-0.999,0.433-2.05,0.958
					c-1.033,0.563-2.362,1.236-3.614,2.029c-1.283,0.739-2.482,1.596-3.439,2.218c-0.934,0.656-1.586,1.142-1.739,1.211
					c-0.643,0.443-1.377,1.035-1.196,0.972c-1.054,0.793,0.245-0.332-0.527,0.207c-0.011,0.021,0.078-0.025-0.159,0.159
					l-0.756,0.502c-0.791,0.656-1.721,1.517-2.699,2.34c-0.917,0.89-1.887,1.745-2.572,2.577c0.375-0.503,0.817-1.064,1.784-2.063
					l0.196-0.146c0.121-0.159,0.958-0.936,0.903-0.95c-1.016,0.843-1.814,1.648-2.767,2.656c-0.188,0.174-0.404,0.375-0.555,0.515
					c0.009,0.001,0.028-0.01,0.031,0c-0.339,0.304-0.31,0.266-0.211,0.13c0.014-0.021,0.031-0.043,0.057-0.079
					c-0.741,0.446-3.414,3.906-4.907,5.793c-0.393,0.594-0.016,0.071-0.502,0.811c-0.75,0.978-1.368,1.816-1.944,2.701
					c-0.608,0.864-1.171,1.774-1.822,2.89c-0.348,0.75-0.354,0.818,0.207-0.006c0,0-0.248,0.418-0.495,0.837
					c-0.229,0.428-0.458,0.856-0.458,0.856c0.638-1.668-1.823,3.157-1.104,1.332c-0.309,0.486-0.777,1.563-1.208,2.571
					c0.002,0.121-0.019,0.3-0.515,1.583c-0.76,1.76-0.593,1.336-1.157,2.82c-0.18,0.336-0.017-0.225-0.085-0.178
					c-0.722,2.348-0.796,1.996-1.428,4.23c-0.358,1.41-0.959,4.219-0.83,4.313C-0.095,50.661-0.175,50.649-0.229,50.444z"/>
			</g>
		</g>
	</g>
</g>
</svg>
